0.661847 1.25676
-5.36716 1.19506
-0.405253 0.445684
3.27665 1.26821
-0.314475 -2.40567
-4.46193 -3.36829
6.02422 2.80825
1.41305 -3.63952
-3.68182 -4.97303
1.4031 -2.66184
-0.0228257 -1.77152
-2.15446 1.32136
-1.07159 -2.29876
0.391109 -6.80792
1.46258 -2.5217
-1.04406 0.716395
2.13687 0.959759
2.33638 0.967574
0.84174 -3.70041
-1.37914 3.15156
-5.90118 -1.38394
-3.43168 2.16403
2.90871 1.02435
0.425984 -2.27641
8.16101 -1.01536
-0.841715 -1.13411
0.0344366 0.304771
-0.804287 -3.7773
-0.217237 -0.495505
0.540126 2.71661
0.724387 1.11238
4.05978 1.78965
1.57315 -0.831518
-3.15024 -0.782577
4.87214 -3.55758
-0.30726 -1.45447
-4.41649 3.92904
-2.40624 4.02208
0.456544 1.24196
2.84251 -3.53255
-4.50429 0.417315
3.77472 -3.8483
1.34737 3.53638
-4.61175 -2.42371
-1.93319 -1.20231
-4.06481 -3.53257
-0.675853 -1.65634
-1.02615 -3.21279
2.1879 0.20529
0.734285 3.60077
2.28838 -2.00388
8.07196 3.97322
2.03847 -5.92745
-1.42045 -1.81917
-0.320868 3.39806
0.455214 0.912016
2.43588 -6.53363
-3.65861 -1.12263
-1.43065 2.82647
-1.35064 3.37864
-0.266036 0.347206
1.49641 -0.563242
-1.6652 -2.0628
-0.692062 -3.036
3.84063 -1.38959
1.4075 3.31081
0.267256 4.82321
-1.57587 3.45947
1.91306 2.25601
-1.5497 -2.76015
-1.347 0.893842
2.29521 0.554077
-3.17369 -3.35011
1.32609 -2.00221
4.67768 2.05725
2.40603 7.218
-3.23304 -7.75219
-2.6512 -1.53456
-5.78421 -0.0334855
1.83274 -4.78486
2.36649 0.155654
-3.27392 -3.3146
6.19703 1.46284
1.25636 -3.25834
0.381179 6.74245
-1.11586 -2.00673
-4.16055 0.329691
-0.816301 2.48541
-5.30595 -1.24005
-1.91392 1.2096
4.46741 -0.955678
-2.07154 -2.66255
-3.52358 1.30752
1.98686 -3.12944
-3.70162 1.73129
1.51348 0.412995
3.60596 -1.41021
-1.75335 -1.72665
0.500988 -1.16804
-1.58635 -1.1221
-1.92144 2.26739
2.57552 4.14832
-1.85052 -1.44836
-0.0247271 -4.76978
-1.18957 -0.604989
1.91979 -1.88316
-1.27629 -1.77898
0.994263 -2.79288
-0.411184 -0.985218
1.60045 -2.62034
-0.2784 0.498807
-6.0504 -1.35759
-2.33265 4.01852
-0.523787 3.18865
-4.54567 0.959252
-0.641753 0.349635
-3.20302 -0.391317
-2.28593 -1.89518
-0.664345 2.74577
0.0634585 0.253981
-0.813973 1.82752
-1.33195 0.659933
-0.240517 0.806769
3.34435 1.78692
0.131613 -0.221435
0.130478 -0.132041
-2.00161 -5.0754
-0.964596 -3.09042
1.34068 -1.97737
1.22727 -0.429387
0.552361 -2.80181
0.577947 1.92256
1.65979 -4.68993
-0.830988 -0.490062
-3.53787 3.54606
-2.82107 -2.10764
-0.110325 0.192136
-4.66229 -0.806112
2.50854 2.54335
-2.36833 1.1204
-1.55652 0.578951
-0.276575 4.87988
1.30968 -2.58884
-2.82323 0.24282
2.34232 -4.93668
-3.51935 -1.40817
-0.314606 1.5284
-2.69009 0.861307
4.49676 -0.685144
2.1658 -4.70851
-4.15039 3.71414
-0.0149786 3.17015
3.91962 0.399812
0.935297 -0.876356
0.897651 -0.744901
-2.14779 6.09018
3.25994 3.86719
-2.70525 -0.246347
-0.544727 1.88566
3.83506 -3.34186
3.22215 -1.078
0.825402 -2.81985
2.77935 1.44533
-4.31547 -3.05506
5.63996 1.68968
4.31559 -5.01227
0.471652 -2.58851
4.58292 -4.19544
-1.91853 1.56322
-2.0667 -4.20058
5.36176 0.398889
0.510212 -1.61222
-3.07556 2.34442
-0.9281 0.324195
0.154395 1.31775
1.87244 -2.2022
-2.97646 2.96018
-1.2413 -3.06195
-5.81702 -2.54038
5.11623 -4.34067
-8.05642 -1.2886
3.9766 -2.34189
-6.53569 -1.82137
-7.06353 0.579215
1.17396 -2.91834
-0.941746 -1.47419
2.54873 -0.750856
-5.01798 0.343978
-2.05913 0.264525
0.670156 0.214302
-3.55775 -0.0947902
-1.01637 -3.69202
2.41063 -1.73601
1.93017 1.10888
-2.99299 2.57131
-1.03065 -2.10527
0.889335 -6.62268
-1.5968 3.16829
3.50522 3.74631
6.60074 -3.73493
4.64642 -2.10196
-0.451711 2.40316
1.22501 -4.58124
-1.28513 3.4959
1.52262 1.4284
1.0652 -0.353034
2.27779 -4.71214
2.3402 0.828659
0.747418 2.3729
4.00441 -3.4156
-0.357956 -3.08655
-1.17235 5.46387
-7.15732 -8.56049
2.00952 3.48291
-1.83658 -5.34081
-4.02686 2.96389
-3.20278 0.90493
-1.11213 -3.7835
3.39415 -1.1724
-3.10633 -4.28506
-1.20218 1.86779
2.81294 -3.41151
-0.0117663 -3.01741
0.3993 3.7181
-1.62004 1.13623
0.845239 2.26286
1.89021 1.63587
-1.15649 6.59295
-2.29311 1.70775
-1.75692 1.98382
0.252068 -5.12807
-4.16371 2.36552
-1.25438 1.50873
-7.15216 1.50727
1.46837 -0.63625
1.65677 5.30903
-5.33275 -0.0521512
-0.516713 -1.43489
0.566699 -4.70725
1.65733 0.259554
-3.30675 2.8525
3.07278 -1.4537
-2.62118 0.851682
1.37768 -6.5922
1.92143 2.25734
2.05503 -2.77016
0.79111 2.59132
-2.14192 1.31057
-2.51303 4.67056
-0.724755 2.14134
-1.03558 -0.209513
-0.0744636 5.04265
2.96987 0.596226
-2.02722 2.32975
2.95757 6.68356
2.19538 8.29032
-0.751154 -3.18208
-4.97246 4.32666
2.64968 0.33236
-6.46171 1.10025
0.984233 -4.11015
2.39006 1.92991
-4.42544 1.92608
0.460726 -4.09911
-3.22151 2.65913
-2.84304 -0.320014
-1.77655 -3.19038
4.77288 -1.30397
-1.09347 3.43463
8.56666 -0.249469
-7.94853 1.51572
2.08509 -2.96069
0.431285 -1.60835
-1.06018 2.43766
4.01645 0.166783
5.04796 -1.67528
-4.93287 -3.34065
0.570443 -1.3168
-1.39784 4.0338
-1.99816 -3.53194
1.9271 -5.25918
-0.788263 -1.3306
-4.62739 -3.96929
5.55308 -8.06539
-1.61495 -0.856158
-7.06696 2.76995
1.42438 1.07043
3.71769 -2.10313
-0.386866 -2.38779
-0.400998 0.488938
1.84091 -1.28726
-0.159225 2.99241
5.11004 -1.33072
2.80646 -5.17814
-1.20489 -1.03861
0.64014 -1.22442
-1.24187 -7.65749
0.554411 3.60553
0.827259 -0.246267
-1.17777 0.0932013
0.969509 6.0387
3.50504 -4.78344
8.24127 6.77185
1.3848 2.82525
-2.34486 4.94287
0.716638 0.239042
-0.565495 0.675405
-6.59948 -7.10777
-5.35395 -1.17018
3.54296 -1.57173
1.37977 -7.1234
1.43191 0.563112
0.0749502 1.84283
-2.46169 0.7392
3.13196 1.90992
-1.48722 2.72485
-4.25312 -5.06416
-4.99682 0.527828
-2.46384 0.431132
0.287028 -4.54817
-1.50159 0.301864
-0.00601997 -0.16334
-3.15367 1.91458
-1.31515 4.05751
-3.13014 -1.4701
3.42531 -0.573525
1.52774 2.21987
1.38907 -0.439544
3.88163 -4.56654
3.25461 0.673052
1.33435 1.09646
-3.89339 -6.57305
6.88961 1.11264
-6.79404 3.03645
-4.84886 2.21533
-2.93341 -0.23779
-5.19209 1.06063
-2.30856 0.863195
1.54181 -1.21982
1.97569 -2.44512
-0.943567 -1.69221
-0.833974 -1.46972
4.64613 2.70546
0.516435 -3.41495
-0.354756 2.41352
-0.929104 2.37533
-2.10838 -3.30587
-2.69843 4.42848
-0.132818 -2.19834
-4.48413 -1.41441
-1.38288 -3.41094
-3.06625 -5.20881
-1.09262 -2.0146
1.65694 1.15725
-4.46473 6.59572
-3.27245 -1.11148
-4.12604 -1.10275
-3.98219 2.16851
-1.32904 0.459162
5.75792 2.84534
-0.612395 0.233235
0.404638 -2.40052
0.921999 -3.44605
2.5592 -0.383855
7.98085 -3.98189
1.87305 0.68441
1.26808 -1.53363
-2.02261 -1.75787
1.17341 0.451789
-1.82276 -3.98282
1.96955 0.431084
3.67552 -2.20844
1.19876 -4.67569
-2.87185 -2.22773
0.807794 -5.24316
-4.45543 2.2341
-1.74945 2.02891
3.89122 -2.63301
1.78553 -0.0265919
-0.535551 -0.223547
-4.46941 2.82481
-5.52896 -7.79353
1.33178 -0.58498
-0.184967 -7.96137
-0.67284 -3.79095
-3.60936 -3.90966
-3.46375 -5.86389
-3.62878 -1.0394
-0.188163 -2.9381
-0.225458 -0.910071
0.91159 0.310766
7.6657 -0.0699684
3.27304 -4.72983
3.43982 4.81782
-0.743725 -1.9754
-0.219773 3.47206
-0.0225496 -2.58521
-1.12954 0.516405
2.7154 1.03091
-0.326091 0.225545
-0.785981 -2.07047
-0.65474 -1.19543
1.78094 -0.195282
2.10323 -0.850078
-2.77007 -4.95245
-4.02629 -2.65509
9.74237 -1.58119
-2.65699 0.32388
3.11338 -8.02264
0.0410791 0.965199
-2.49838 1.82965
3.31868 0.565071
1.60103 3.51078
-3.2906 0.540263
-0.17602 0.543389
-2.84672 -0.515582
0.955286 -0.722675
1.53195 5.69795
-7.44619 5.10677
3.71763 3.70133
-7.00603 1.72243
-1.72592 -1.26667
-1.11929 3.38864
-3.00457 1.69902
0.51667 1.26264
-6.6905 -6.49444
1.70306 0.30919
4.07635 0.673364
-1.14656 -0.704476
-3.6617 1.05139
-3.4847 1.06837
-0.977871 -0.151593
7.43525 -8.23438
-3.37149 1.38327
0.620554 -0.122877
-3.7943 1.74744
1.9674 1.35952
-0.840311 6.32648
-0.283071 0.566026
1.11415 -5.03292
-1.04012 -0.751958
-1.21253 3.66362
-4.59852 1.66208
1.88079 0.675724
1.04981 -1.13495
-1.38933 -3.34881
3.27156 -1.32496
2.20316 0.265834
0.556312 3.23762
2.57102 -1.46076
-5.20087 1.69015
2.51882 1.1785
-1.17856 -2.60161
-1.41723 -1.04042
0.0421422 2.4754
1.3041 1.86741
-0.204358 -0.601779
-4.30884 0.0931818
1.77265 2.67536
0.654809 1.78934
0.0056256 2.66883
-4.56261 1.06936
-3.41735 -3.47511
-0.0926312 0.0774019
-4.43273 -0.421844
0.277934 1.21476
-0.153848 -1.91924
-4.3885 3.53584
-0.888547 3.26971
-2.58692 0.012255
-0.928795 -1.78887
-4.62155 3.805
-2.18485 3.31301
1.80809 0.833718
5.30369 0.392402
-4.15041 -4.4547
-3.4073 -3.61454
1.3387 7.08168
-0.364164 -1.40695
1.69995 0.432306
3.22745 -2.33935
-3.03871 -0.910676
0.823618 -0.141498
6.19499 0.666232
-1.03027 -2.09372
-5.61824 -1.18427
2.00332 3.55337
0.312505 4.3081
1.7394 3.00576
1.23778 -0.336279
3.20225 0.729328
-1.94841 5.54302
1.68676 2.57353
-1.64677 2.28136
5.55621 -2.14124
-7.73013 -2.25097
1.79925 2.77705
0.899348 2.64763
-0.402803 1.33308
5.62277 1.4276
-0.207774 -1.6466
-0.793265 -0.0525869
1.85511 0.360282
-0.651171 2.21349
-4.43157 -1.0059
-2.28458 1.68701
2.90066 1.222
3.87611 2.20312
6.30769 1.09214
1.86322 -1.74035
1.64738 1.86239
1.87645 -1.84858
-1.09514 -4.42403
0.503978 -1.03517
0.858289 1.47603
0.194503 0.671809
-0.797496 4.74948
-3.94634 8.75765
-0.855066 3.74863
-0.734363 3.25223
-0.9387 1.99923
-1.83761 -3.35398
1.05874 -4.10478
-0.983676 1.29547
2.89614 -4.90036
0.724851 -1.53981
-2.32471 0.641026
0.780369 1.01247
4.05344 1.38911
-3.16737 -0.614511
-1.7791 1.90131
-0.186124 0.0524495
1.03099 -3.98545
5.24856 7.03976
2.17837 1.73898
-3.29589 0.973069
-4.87931 3.08626
1.65411 2.22832
1.59727 4.94024
2.68466 1.13442
3.80959 0.919154
-0.380805 -6.13031
0.227014 0.0210044
0.169803 3.11755
2.15259 5.09406
1.23981 -0.379222
0.16433 1.12659
0.591854 0.518177
-2.59231 2.45194
5.88139 0.902329
0.761104 -4.2783
0.968331 -2.02584
1.46849 -0.70748
-2.4413 1.69082
-8.45651 -7.98898
-1.68291 0.486499
-0.376849 -3.85947
6.78467 4.78899
0.185972 -0.158014
0.284976 2.80997
4.8179 -0.437572
5.08811 4.1458
-0.0863106 -0.744017
-4.27989 5.04522
-2.85449 6.69949
-0.811255 4.77318
1.71891 3.69049
-2.40391 2.4968
1.47889 3.10922
-1.31118 3.00778
7.86408 -3.51191
-1.47704 1.32599
3.8496 0.0731711
0.248905 1.24662
-2.35807 -1.09691
-2.67744 2.83736
0.814139 -0.250957
-0.62024 2.51066
0.208639 1.23749
1.2741 1.39533
-3.25505 4.34123
-1.39946 1.75084
-2.8263 6.91893
-1.71869 1.02161
0.636162 1.1083
3.51038 -0.869798
-6.97112 1.81429
-1.40309 1.11211
0.888443 0.233237
1.04444 2.50437
-1.7719 -1.94882
0.373689 -6.38153
-1.13375 8.00611
-0.00990252 -2.96367
-5.03005 -1.31571
4.72534 -0.779707
-6.7131 -1.70071
-2.19725 1.25847
3.17843 0.420501
-2.38531 2.8908
-3.20166 -4.69142
-0.912187 1.57457
0.971686 -5.37418
-2.13538 -0.836964
1.32946 -5.86577
1.68268 -2.19174
-2.08457 -1.14735
9.33533 2.81562
-3.23702 1.85435
-1.59961 -5.4126
0.491964 -1.67855
2.97083 0.802738
1.80602 -2.70401
6.80597 4.91138
1.11614 -0.269567
5.61201 0.975006
-0.833061 0.752061
3.47574 -1.97529
-0.422235 1.90507
-0.642341 0.549493
0.287493 0.472824
0.496778 -0.091468
4.8478 -4.7104
1.66621 0.109227
-0.67207 -0.609607
-0.0660537 -2.55527
-1.75825 6.69045
-1.18676 -0.864609
-0.798373 5.12826
1.9857 6.85796
-3.38992 -1.73518
2.2241 3.38485
-4.60263 2.30104
-0.288594 -2.73456
-3.50585 -2.15238
2.1386 7.48761
1.19803 1.09165
2.22107 -2.96346
-1.56241 -1.67949
-2.79584 -4.13513
2.91841 7.06044
-4.15686 1.56469
-2.09515 3.70045
-1.22734 2.72192
-1.97039 -0.375637
4.79062 1.95537
-3.13914 1.0803
-0.860076 -4.55527
3.62295 -1.42604
-4.26605 1.683
1.77644 1.78603
-1.4269 -1.80105
1.48079 0.596732
5.45263 1.93905
-1.19709 2.29708
3.72334 -3.30854
5.47812 -1.37202
2.49295 3.48643
-1.73548 -0.679581
5.76877 -0.218537
1.40514 -0.729273
-1.44926 -6.97134
-6.95927 -1.79552
1.29004 6.88833
-5.54183 -0.247134
-1.13116 4.1627
-8.12034 -0.081572
2.12264 -1.78157
-2.57307 -2.92499
-5.98746 4.58152
-0.774291 3.36331
-0.818554 2.75643
-0.699815 2.01603
-0.175147 0.239245
-0.834586 3.03343
-6.66999 -6.52122
1.20461 -3.05211
-3.01994 0.474053
-4.67584 0.623183
-0.267918 2.31923
-2.78219 0.128286
-0.06557 -0.539489
1.17441 -3.22988
-2.09651 -1.18701
-3.06319 1.09578
0.13409 1.93692
-3.5608 0.91603
4.16902 -3.07413
-2.2398 3.82135
0.710329 -0.926106
0.864251 -2.21047
-0.386455 0.0618802
-3.8343 1.84391
2.28026 2.35383
-5.23989 -0.148784
2.18646 -0.608315
0.170452 -2.59005
0.177318 0.908258
0.349427 -2.20722
1.66844 7.57651
-1.90699 3.98273
1.12142 -1.88612
-0.165892 5.03424
2.60099 4.24848
-5.42837 6.73155
-3.36933 1.40638
1.27081 0.86643
-3.84136 2.49306
-1.23746 -0.485125
-4.34129 0.162861
-3.01573 -1.46649
0.891948 -2.15743
2.23906 -0.600012
0.281635 -4.94305
1.18947 0.0718969
7.3012 1.8916
4.328 3.13936
-5.09023 -0.262561
6.66346 0.224268
5.61177 -7.45412
-2.92774 -3.46847
-3.18381 -4.08543
2.51669 -3.79945
-1.96818 0.0470175
-3.00023 -3.52323
-0.894884 -4.00938
-2.91042 -3.84572
3.68782 2.63365
2.62765 1.28936
-0.233619 -2.37331
-1.70816 -1.37925
-3.85187 -2.21905
0.873072 -3.01207
6.09449 -2.00824
1.92416 5.45905
-1.35064 2.09639
-4.38372 1.88019
1.17844 7.09478
1.5366 -2.49788
-6.0508 2.99848
1.32754 -1.66621
0.132853 -2.66191
7.93281 2.51854
-4.64939 1.29482
-1.60477 0.992262
-2.453 0.675646
-2.11668 2.72019
1.72363 -1.12925
0.878662 -4.88015
-1.27653 2.12004
4.87827 -1.86345
-6.34067 0.890791
-0.472185 -0.392539
-0.504575 -0.451333
-0.769379 1.36894
-6.22888 -0.121585
4.57236 1.48592
4.0463 6.74781
0.855683 -1.38822
-0.31239 -0.690357
-2.07748 3.25351
2.71746 -2.09907
-0.201838 5.26494
0.00829652 -0.31069
1.92818 -1.67508
-0.46915 3.45676
1.93645 -2.26034
0.579937 -1.88332
1.7743 0.851855
0.787667 3.88236
-3.4229 1.32388
0.887265 -1.43904
4.74288 -0.466319
-0.242525 -3.28138
-2.10969 0.920156
5.79019 -2.10558
0.345198 -3.24831
2.62932 -0.671764
-1.99301 -1.6299
-2.60424 2.33479
-2.62185 -1.27977
4.79648 -3.92634
-0.601194 -6.10734
1.02696 1.05571
2.32474 0.0812513
3.5001 2.70395
5.67008 -0.672733
3.11308 -3.91715
0.760903 3.10671
3.12476 2.02812
5.55959 0.281116
-2.05913 4.94461
-4.7478 -1.23277
2.65111 2.79156
0.19823 2.79972
-1.1849 6.49332
0.875023 -0.996311
-1.7648 -0.333753
0.581459 -0.316904
-2.75306 1.39637
0.418831 -2.82479
0.744236 2.79499
1.17879 -0.593435
0.1753 -6.87361
-0.108019 1.67035
-2.6315 5.56638
3.1661 2.04311
-4.67447 -0.941686
4.61089 -5.3908
-0.263472 -0.530502
5.49346 6.11638
2.13437 -1.06812
-1.78562 -2.75199
-1.14542 -0.163692
-4.44235 -1.0953
0.811012 6.37007
-1.69801 -3.12527
1.3987 -1.01194
-1.99176 -2.63019
5.52064 -4.83772
-1.3696 1.75424
0.683465 0.934277
-0.282281 0.311714
-0.411587 -2.36638
-3.69405 -0.784684
0.673001 5.96918
-0.950914 0.918227
-0.630879 -4.85987
6.77498 -5.61497
3.07871 2.61688
-1.77836 2.5427
5.78119 1.19883
0.618533 -6.52202
-0.83564 2.01694
-0.823761 1.1199
-5.40768 1.66032
3.28699 -3.4945
-5.40196 4.3832
-1.85004 -3.66882
-1.08185 0.660811
0.373061 0.810886
5.47637 3.19618
-2.257 4.61099
4.37971 -0.273204
1.03627 -1.90764
0.898779 -0.418518
4.13317 -2.40601
-3.93014 -2.23192
-1.34279 1.3294
0.608028 0.706936
-1.23472 -2.3774
-1.7894 -0.491714
-3.39705 1.74525
3.65965 -1.11168
1.53273 6.07027
0.973079 -0.37724
-3.79555 0.670668
-0.879576 -1.74303
3.74741 -3.05308
0.114684 -2.38744
-2.68625 -0.754226
-0.230443 -0.265515
5.15225 -1.71737
6.44278 -0.566042
0.716871 -3.6202
2.16924 -0.567454
0.200205 1.95702
-6.47975 0.053343
-1.22982 -1.53966
1.2013 3.61381
0.586973 -3.02868
2.27619 4.47074
-0.851787 -4.54161
2.73339 2.77552
3.16784 1.09656
-2.87865 2.65248
1.29672 0.516709
-1.64949 -4.1191
-0.450162 -2.68237
-1.03567 1.78476
-1.34461 -0.434083
-0.931578 -2.11009
1.49609 -3.07329
2.75264 -0.0331793
-4.59983 -5.51726
1.73373 2.98658
0.744469 -0.955798
-0.560401 3.38467
-3.11292 -2.32481
-5.53357 -3.27423
-1.00836 -4.36724
2.03235 -1.05402
2.58077 2.83929
-4.47382 3.25911
-1.10078 2.24435
1.41783 -2.13879
-1.09838 -0.243988
2.20104 1.23014
-0.986014 1.34325
1.65276 -0.993047
-0.96021 -0.564912
2.34526 -1.79178
-0.212234 -1.6054
2.86777 -2.96085
0.942428 0.76627
4.66114 0.847882
1.5638 -0.83669
-1.46767 -1.37695
-5.50635 1.92297
3.44986 3.07025
3.68568 3.22939
-1.52302 -2.4598
5.21762 1.7843
0.364057 -1.10727
0.675735 2.47393
-1.5195 -3.42939
1.24804 -2.69943
0.0746253 -2.66248
-2.32236 2.72859
0.695847 1.76767
-2.05136 0.00814436
-4.00172 2.84238
0.683522 0.361743
1.56571 0.386374
1.48364 -2.44808
0.257472 2.84271
3.72049 8.48316
0.945521 -0.0437699
-7.36842 -2.54683
-2.21502 3.29334
0.618579 -0.877804
0.936697 -2.87575
-5.65297 -10.6509
-1.48054 -1.63185
0.792036 0.423263
0.0256578 -2.92388
3.43326 5.12513
-1.64274 -3.32449
-1.24707 -2.07962
0.852892 3.69065
1.89135 2.25199
0.390089 1.67286
3.72476 4.04622
-0.804197 1.76676
3.48527 -1.96402
4.29004 1.26017
-1.7431 2.09164
2.33225 -1.19253
-0.913982 -4.60315
-2.79154 2.16306
0.697235 -0.901106
0.511241 -1.54807
-0.0899386 3.19466
4.23981 -1.06733
-1.04415 -0.203077
7.51368 -0.716325
3.47533 -2.36448
1.04101 2.73058
-0.664564 1.79761
0.751053 5.78677
1.09455 -2.26868
-5.60118 2.01747
2.48781 2.0664
-2.05451 0.667923
-2.86157 -0.713925
-0.215751 -3.33952
-1.88189 -0.371624
0.978114 0.923608
2.95073 -4.44317
-2.43026 0.959074
-0.666597 -4.86461
-1.49555 0.359803
-1.45958 -1.02021
5.07854 2.58122
2.65799 0.363494
-3.22857 1.63039
-0.725001 3.52487
-0.753625 1.05765
4.43997 -4.96749
-1.3452 -0.37336
-2.64147 2.04119
-1.17189 -2.52727
-1.62499 2.48407
1.868 3.63155
-0.618742 -3.67308
-6.81089 0.228496
-1.95256 2.2581
-2.17413 1.86734
0.608093 -6.79831
-4.52091 0.869683
1.89551 5.10481
-2.6151 2.37
-2.7818 3.13026
2.04141 -2.18181
-0.190238 -1.71084
1.0566 1.237
-1.11883 3.26047
-0.430614 -2.93478
1.7778 -2.86652
-0.621674 0.790061
-2.06694 0.56137
-0.851709 0.498889
0.843411 2.03118
-2.91388 1.53764
-0.484541 -2.72634
-0.285708 -1.77145
3.84149 -3.79905
-3.07195 -4.60346
3.82051 1.26823
-1.55008 -4.29412
0.213541 1.35632
-3.18216 2.80435
-3.58959 -1.15679
-3.36848 0.229966
-1.03233 6.10969
0.77219 -6.38152
2.59808 -2.82805
-0.35303 -4.53723
0.635003 -3.5663
-1.85912 1.27848
3.01127 -0.137538
2.28783 1.89072
-0.701645 -1.14547
-2.38844 -0.679777
-0.157568 -2.77187
1.05179 -1.68804
2.63904 4.49052
-4.66137 2.41608
-0.665971 -0.750868
-0.620966 0.140189
-0.113936 2.30379
2.40246 2.81949
-4.94243 -2.72684
0.210958 -2.32858
-0.345072 -5.53954
0.232738 0.108266
-6.00217 1.71209
-3.36855 -1.05329
1.1738 2.62866
-1.15312 2.93931
-2.37579 6.49432
2.05962 -0.76325
1.48313 -4.9997
1.24049 -0.738635
2.47159 -5.2505
1.1616 -3.28815
-1.44095 -0.562865
-3.51736 1.88528
0.236485 4.12409
4.33207 0.603928
-1.15695 -0.300443
-2.92157 -2.82086
-0.482548 1.54181
-6.84235 2.51788
0.256266 1.13485
2.47092 -1.94471
2.04313 0.115278
-1.09033 5.4457
-0.217383 7.14044
3.50644 2.00555
1.87708 2.78179
-1.62544 -4.69797
1.103 -3.11192
-1.47674 0.27131
-1.5382 -2.67086
-1.73619 1.77507
-1.28632 2.38697
0.146305 -3.25132
2.82887 6.66622
10.1749 2.83366
2.12326 -0.806206
-0.220583 1.34269
-3.57804 -2.09641
-2.3449 -1.03728
2.79753 -0.184416
5.87012 -2.72293
-2.7243 -1.10884
-0.139739 -0.272913
2.15346 -3.04853
-2.19967 0.665349
2.79789 4.6256
0.480955 4.51013
-0.697613 0.0520469
-0.848568 -0.552377
-0.0797767 1.90869
-1.6594 1.56539
1.28084 3.14829
7.04135 1.77501
-2.31011 0.684686
-2.92309 -0.357029
1.74409 1.05649
-1.86693 -2.88696
0.272346 2.3833
2.97021 1.99258
2.44458 1.84262
-0.899837 -0.885479
2.59075 -2.56452
1.57269 2.34852
-6.48065 -1.90039
-1.13892 -0.317056
0.912735 -1.14837
6.94845 -2.64411
-0.534459 -4.53717
2.59993 -2.37351
2.69704 -0.389322
1.02877 -6.59616
-1.66647 4.57218
0.457705 3.33166
4.38181 -6.12164
-2.646 -4.41587
-8.62713 2.59571
-3.45757 -2.62336
4.9241 4.15622
-1.76981 -0.208908
2.07903 2.04077
4.68731 -4.60135
-1.42875 1.62547
-1.15162 2.83532
0.519359 0.0572305
-4.21402 4.06384
3.19986 2.33155
3.31059 -4.88122
-0.91048 -0.440216
-0.923433 -0.493948
3.72793 1.76147
-1.66073 2.29627
0.573395 -2.26748
1.32912 1.44367
4.22545 1.33304
-1.86271 1.89924
4.30498 0.220645
4.27904 -3.82236
-5.95641 -4.75142
6.2292 -0.768683
4.56506 5.27686
0.598216 -0.71632
-1.75613 0.772464
4.43291 2.18767
0.13635 4.76674
-1.83252 1.50867
-1.91292 0.00918233
-2.73746 -1.22937
-0.148235 -1.1436
3.62118 -1.36785
-0.26651 7.3116
2.72874 -0.368573
-2.11117 4.17893
-0.492987 3.59869
-1.90507 2.70157
-2.58513 1.20216
-0.281097 6.09727
1.44759 2.46502
3.70302 -1.15048
-1.2429 4.12546
-0.617134 1.58301
-0.0583513 -1.66877
0.137937 6.99325
-4.98742 -0.0856482
-1.18025 -2.96081
6.84572 -0.716564
-0.895255 -0.023967
5.70876 -1.1067
-2.57085 -1.85269
-2.15794 -6.99217
1.30252 3.02171
3.73226 4.3076
0.00701786 1.53922
-4.99935 -3.2817
-0.901479 0.34807
1.30093 1.12831
-0.997098 -5.25136
2.62404 -1.66683
3.7323 4.19717
3.88031 -5.98839
0.99064 5.33951
-2.54974 -3.24483
-0.754083 3.39245
0.411496 4.31659
3.38499 -5.84387
-2.68946 -3.95638
2.23294 -1.14299
-0.0214103 -1.29329
-1.53438 -4.30902
0.686867 -4.22247
4.24463 2.04684
-2.54615 0.828953
2.60882 4.40416
3.07237 -3.02701
-3.30516 -6.48836
2.30338 -4.44536
-4.69073 -0.42236
3.9165 -4.05209
1.6851 -2.13334
-1.75711 2.05089
-1.4914 2.50322
0.22759 -1.62212
-1.09185 2.87805
-1.69106 -1.46994
5.99179 -0.56568
-6.58641 -3.17239
1.26947 -2.23466
3.17879 0.0921577
-0.947896 5.88492
-4.95129 -2.81734
-0.89608 0.97803
-0.287231 -2.09296
1.52051 -0.895607
-2.76192 -6.33828
-0.299528 8.43101
-2.32883 -0.689171
2.75104 1.27486
-2.16331 2.23913
0.816914 -3.75847
-4.16793 3.46617
-0.831132 -3.02926
-2.50536 3.64321
-0.578612 -5.4992
1.48006 4.80078
-2.97394 -2.12309
6.66287 -1.13312
-3.31545 -3.26368
0.584846 1.86901
-0.181729 4.67297
3.7502 1.01309
-4.20746 1.30735
0.961646 1.22756
-1.84555 -4.28356
5.30917 3.34132
-1.59602 4.1466
1.65123 -3.44267
1.32061 -0.521528
-3.74356 -3.72947
1.04458 3.31283
-4.88675 0.581683
1.66815 -2.97692
0.311538 -3.39264
-2.81601 -1.55102
-0.968523 -2.21588
-2.04151 1.9013
-1.04333 -0.091694
5.09666 -1.40547
-0.162402 -2.49011
2.57867 -0.170289
2.55718 -2.68037
2.23224 0.628276
1.61372 -0.808826
-0.0516238 -2.05301
-1.36043 -2.44322
0.218678 -2.4558
-4.36899 -6.05555
-0.465728 -0.436797
-1.85832 4.26514
2.04269 2.51906
3.21506 6.10975
4.76093 -6.17122
-0.640504 0.702639
4.24184 -2.84024
-0.448596 -5.12619
2.88911 -1.40137
3.17337 0.921182
-1.20051 1.32373
-0.968296 -1.77147
-5.12693 0.657997
-0.140013 0.587024
-0.469361 -1.70742
0.0134111 -2.89283
-3.02036 3.61471
4.06318 0.38745
4.17457 0.307831
-5.47446 0.910713
6.30715 -3.48712
2.07836 -6.06575
0.719771 2.50187
7.5249 0.706607
-3.70956 -6.19525
-0.654793 -0.197753
1.75224 6.81684
1.40711 6.77655
-2.63258 0.126202
-4.51261 3.25129
-0.862109 5.38067
-2.67248 4.56564
-0.459 0.678758
0.108269 -0.579832
-1.74478 0.453076
-5.41454 2.56527
-2.71246 5.22454
1.41243 2.01702
-4.88354 -4.18891
0.902217 1.81681
-1.69036 6.47635
0.370177 -0.69903
1.01807 -0.545787
0.519401 -5.82379
-2.75441 1.45811
2.3091 0.757592
-0.369998 -1.85311
-4.94767 -0.625653
2.65003 0.183127
2.96976 -5.30496
-0.157729 5.01485
-2.94863 3.9842
4.55555 -3.95541
2.07748 -3.05247
-0.403015 2.40846
-1.85331 -0.959958
-3.02441 0.1607
-2.55954 -1.19389
-3.47726 0.105964
-3.23986 1.32885
-2.74026 -2.48093
1.82337 5.7496
7.03165 1.00647
7.82991 0.224559
1.71356 -1.93491
-0.843181 1.11682
0.191813 -1.66044
-3.68683 -0.424711
2.55792 -3.71924
2.81589 0.524027
-1.60237 3.71248
-1.38435 4.98859
0.319626 -2.32832
1.54876 -3.33461
-4.11027 -2.60338
-2.96266 -3.01349
5.03846 2.10787
2.19066 1.22373
-4.41892 -0.499738
-0.163148 0.967213
1.53791 0.141055
1.23784 -0.343053
-1.39868 -0.307247
1.24022 -2.54309
3.15798 -2.33728
2.68187 -5.24933
-4.47366 0.310594
2.33142 -1.68463
-1.12526 1.82333
-5.20078 0.151286
1.97055 -3.60682
-2.31592 3.24287
1.13633 3.32111
-4.75307 -2.43813
5.31197 -1.67127
-0.462362 3.03826
-2.15888 -2.12496
1.4611 1.41736
5.00219 -1.25722
5.21681 -2.48923
0.0682836 -0.642785
4.48615 3.77945
1.49238 1.78922
4.87659 -0.633295
3.39117 2.48342
-2.72841 -2.62324
2.58059 -3.57809
0.31518 0.688998
-1.04261 -0.401577
-1.94777 3.34443
2.46515 -1.77852
2.65788 2.06524
-3.40073 -4.2711
3.19141 1.70559
-1.50482 -0.880741
2.66975 3.68064
0.529896 3.67076
-0.510387 3.32973
0.0321546 -0.761263
-2.08096 -0.284503
-2.48095 0.905347
-0.726407 -0.332063
-0.190341 -5.47179
-1.41115 0.753482
3.03088 -0.725325
1.29872 -2.46151
-1.99504 -1.5889
5.51143 3.23687
1.00303 2.1158
0.345022 -0.778674
-4.97907 4.79641
-3.53287 1.35139
0.989913 3.08018
-4.57652 -1.23423
-1.39426 -1.90833
3.49623 5.40606
-4.98416 -4.09451
-0.369828 -0.0951216
1.95176 -1.99046
1.15262 -0.621756
1.24055 1.42213
-2.09524 0.290582
-0.00237419 -7.0599
-0.393997 1.27657
0.899434 2.56399
2.13713 3.42351
0.198693 -0.977408
-4.50796 0.315191
1.02882 5.36855
-1.28155 1.12833
4.47724 -1.47142
-1.84906 -6.28071
-1.47714 -0.0758308
2.86365 13.0301
2.44452 -2.59972
-1.54743 -7.10157
-0.604606 0.109669
3.95758 3.20313
1.60859 3.65471
1.07885 0.673589
-1.46556 0.555121
-3.12864 1.75728
1.34754 2.23851
-2.46085 -1.09686
4.74129 -3.24463
3.05427 -4.37055
-4.01164 -1.07872
-3.04089 5.69773
6.98632 1.29638
-1.64632 -3.04997
-1.30443 2.2458
-1.27986 -1.45245
-0.559258 -1.12741
0.478472 5.59712
2.53906 3.39244
2.75469 0.227826
-0.847853 2.52179
-2.49204 2.52878
2.75878 -1.09025
-0.756084 -1.94574
-0.00870675 -0.389288
-4.24139 -4.80804
0.145376 -2.16047
2.48147 -3.88155
-2.84397 -4.63106
0.483861 0.106281
5.27895 0.831928
0.234206 2.29934
6.66457 -5.20156
3.539 3.21614
-2.95745 4.70419
6.03995 0.35307
-6.1265 -1.50556
-2.44106 -2.17049
1.99191 0.905061
2.80235 -1.80929
1.11168 3.91749
-1.54461 4.92437
1.79797 -1.34425
-2.61074 -2.84088
-0.471882 3.13835
-1.38387 -0.324727
3.31022 6.00981
-2.13293 2.56022
-0.110346 5.65688
-0.31261 0.473314
4.05749 -1.50821
0.201126 6.75178
-2.71706 1.80039
-3.7313 -1.89244
-0.429057 -4.37014
-0.21889 -4.83647
-1.64475 2.15358
-0.0865096 0.48173
-1.9035 1.29712
-1.63634 -1.31552
-1.17374 0.837701
0.516586 0.835601
-2.0917 0.413125
-0.6425 -0.958656
1.0706 -5.41374
-1.32992 0.848532
1.44808 -1.61443
1.10767 2.81046
-4.59644 -1.52454
1.68104 -1.17704
0.691394 0.406547
-1.65588 -2.50279
1.33515 -3.32135
0.679496 -0.0769655
-2.4307 5.86153
2.48443 1.155
-2.88593 -3.19411
1.07536 4.1986
1.71875 3.29569
-1.68413 -3.98686
-1.29852 -2.61917
-0.691178 -4.27665
0.875838 -3.43671
-0.799283 5.38907
-5.12819 -2.53934
-0.35229 -2.94362
-3.93954 0.579653
-2.04621 -3.30209
-2.68403 4.26327
1.96332 -4.55229
-6.86515 -1.08829
0.374509 1.78613
-2.58998 -3.98168
-4.68947 0.642608
-0.20064 -1.63184
2.03474 -0.213932
1.08576 -1.8508
0.585033 5.75357
1.28747 2.25917
-2.18403 2.6748
6.33038 -1.28398
-1.98313 -4.2237
-4.35705 -4.06915
-2.90027 1.77434
-4.70569 -4.97186
-1.92963 -4.84701
-4.44597 -2.29897
3.22678 2.98139
-0.096695 -2.34087
0.619819 -0.0458559
4.59925 -4.68254
1.05624 2.60317
-7.2068 2.21629
2.37766 1.95232
-0.668164 -2.83195
-2.74737 3.94216
0.805608 -1.82852
-0.0183924 -5.03119
-0.727174 -1.89115
4.29178 2.33132
4.58323 -3.2373
-0.542479 0.996701
-4.79215 1.12939
-3.4332 -1.54767
-1.13546 -4.17933
-0.855799 -2.42563
4.31674 -0.122525
0.126469 0.752131
-1.43606 1.99166
-0.771433 -1.32787
4.37721 1.80071
-5.66926 -0.566427
1.34435 3.74141
1.72737 2.28488
3.14131 4.81438
-2.01866 5.31841
-1.46039 3.67243
-2.47761 1.81477
-0.145756 -0.254845
5.82412 -1.88192
-5.85015 -2.62525
1.18735 -2.17646
0.551699 -0.911258
3.99167 -0.891179
-0.28043 1.05652
1.31033 -1.81826
-3.73937 -2.79696
-0.918162 -1.45206
-4.94171 -0.186283
-1.37077 1.8646
3.08782 5.08375
1.00161 4.69649
3.63662 0.743988
-0.105442 -1.64784
-1.64356 -3.2029
1.69439 0.373861
4.5736 1.21199
-0.676548 3.77057
1.72452 -2.79994
2.17296 -0.648151
4.03828 2.81558
5.50507 -0.076602
-5.04595 2.8166
5.23396 -1.66628
-1.51062 1.09389
0.759556 4.14998
0.429755 2.55224
3.44071 -2.75867
-1.65945 3.62633
-1.14934 3.59463
-3.00211 0.377347
-1.43413 -0.776198
0.436377 0.499337
0.177903 -1.6845
-1.82082 3.09334
-3.73652 0.99259
-0.776973 3.49861
-1.54781 2.74397
-0.812342 5.3364
-1.04026 0.661232
-2.84182 -1.10491
1.43681 4.6914
-0.260117 1.71472
-0.139104 -0.936749
10.0359 -0.988724
-1.25993 -1.42027
2.40844 1.7643
-5.56487 1.413
-4.56761 -2.82626
-3.42199 2.29303
-2.48902 0.355391
0.11815 -2.09015
-4.08214 1.12498
2.80157 3.4794
-3.79263 5.75967
-3.17325 2.52316
0.248066 2.60502
1.85274 2.8182
-3.23385 1.30946
-0.0977134 -2.16321
-4.12756 -2.28856
4.26805 -0.133911
-0.708203 0.588333
-0.566112 -1.32139
5.58934 -2.58426
-1.35429 3.9994
-3.71257 2.17395
-1.48579 2.52506
3.92177 -3.47757
1.68504 -0.971987
-2.83271 -4.97632
-0.576374 3.162
-0.502423 0.50393
-1.03033 1.96589
1.98494 0.88015
-1.06347 -4.24541
0.496718 0.0287426
4.27115 -3.23152
-1.8637 -6.58549
-0.362148 -1.3935
-1.28035 -2.21059
-1.57902 -1.59694
-2.78407 -1.58066
2.00323 0.661753
-2.80404 -5.43737
5.07241 2.10401
-1.01191 -3.56651
-0.291089 -4.58359
0.44456 0.787777
-3.24526 2.15934
-3.63034 -2.01953
-1.21404 -0.244752
-3.30693 -0.295524
0.129936 0.517189
-2.70872 3.38319
-3.98166 -0.0465399
-3.41125 4.46139
0.274129 -6.52039
-2.42185 0.832155
0.848954 0.0791025
4.90325 0.853987
-1.21694 -1.63398
3.9812 0.955259
4.95334 -4.00659
-3.81483 -5.69904
0.598711 5.0766
6.94043 2.87463
-2.50368 2.06586
1.70332 -2.04171
-0.411721 1.82237
-2.28385 -1.07041
2.30773 -0.289079
2.93018 -2.22236
-1.55428 -2.52424
1.84694 -4.8958
-1.95708 -0.311549
2.00423 3.70699
3.78734 4.91066
3.72762 -0.883624
4.69372 -0.155271
4.77112 1.14128
5.8867 2.49476
-5.79558 1.82152
-8.19898 2.25566
0.570021 1.39054
2.61057 1.25935
-0.873295 -4.72232
0.204362 -6.45965
-2.1866 0.0756308
1.77463 -1.86521
7.7473 2.83233
5.86769 -3.00157
-1.13984 0.551635
2.89089 -2.47069
2.43507 -6.25685
-1.36274 -1.67902
-1.3957 -0.680027
-2.66185 -3.08061
3.29641 5.46848
-0.864382 0.845071
2.35511 -3.16829
-0.263673 2.58413
2.57191 -0.785442
1.46179 1.00372
-1.6962 -3.44168
3.49606 4.74762
1.19514 -1.84191
2.53517 -1.70686
-2.35783 0.805706
4.23261 -2.46802
-2.53765 -0.311768
-1.68653 -1.24206
-3.85872 2.34973
-1.31256 3.13035
-5.2473 -1.07165
-1.98095 1.365
1.17711 3.00266
-0.981757 3.56644
3.34025 -4.03864
-3.20337 -2.26829
4.8737 -2.38525
0.662867 3.70049
-1.57844 -5.65215
-4.60131 4.58058
4.50444 2.28004
0.464052 0.273275
-0.208186 -4.51344
-0.211489 1.0483
-1.66361 2.4248
0.52138 -4.60746
2.02883 -3.99804
-1.97739 -5.78222
-2.23499 3.7444
1.0545 1.31834
1.89627 2.49604
-4.38962 -5.51084
1.49864 0.783677
3.91621 -4.19393
-0.861056 0.0213073
4.98747 3.51611
3.42897 -3.70445
3.24866 1.46612
5.50308 2.53643
0.125199 0.271682
-5.60427 2.94826
0.222761 4.82454
-0.529982 -1.46735
-1.84732 -1.57666
-2.51834 -1.62293
0.197859 -2.01187
-1.13927 0.11625
-2.32948 -1.4432
-1.88144 1.54772
-5.13293 0.904176
-3.46763 -1.02539
0.852916 -1.58671
-0.704768 -6.77409
-1.03559 -0.757719
-3.21473 0.743834
-1.41057 -3.04637
0.491318 -3.03767
-0.797415 5.7585
1.9992 4.23503
3.15249 -2.98929
3.20842 1.02934
2.74848 0.794599
-0.131941 -5.42241
-0.323522 -2.70661
-5.7565 2.3283
-6.99785 0.695453
-2.11488 1.59932
-5.2604 1.7236
4.43029 -0.836923
4.63062 0.441483
0.567824 -2.63901
-4.67053 1.88402
-1.8131 0.71769
-1.33748 3.3097
6.75139 1.85982
4.49943 -1.88363
1.76563 0.24332
-1.75298 1.15432
0.887227 -5.77225
-2.72755 -2.2156
5.66832 -2.24374
4.34537 1.95504
-0.381981 -3.56593
0.7248 3.02261
-1.49582 3.73268
-3.11557 -3.41549
4.10426 -2.78701
-3.43241 4.01994
-4.06802 -0.041104
-0.0204045 -0.815651
2.42413 3.30408
0.260615 0.0194901
3.93465 -5.50284
-2.20671 -1.56538
-1.09872 4.52351
-0.0363069 5.57102
-0.880733 2.18327
-1.88945 -2.88971
-2.55143 -2.35628
-1.48092 -2.35312
0.168124 -0.146115
-6.17884 8.35828
-4.62371 1.43847
0.029688 -3.23799
1.86477 3.85983
4.10447 4.4768
5.50774 -0.447515
-3.29588 0.532112
1.02477 -0.882548
-2.46074 -3.14049
-3.91022 0.0410587
-1.10368 1.42991
5.76299 -1.15435
-1.77089 0.803457
2.44442 -2.55787
2.8157 -1.72947
-1.88982 -0.837261
3.25184 -5.35862
-3.18173 -0.838794
-3.91579 -0.0759204
-2.93887 -2.45554
2.82396 1.9141
-5.8774 1.09245
0.253043 1.178
-2.13722 0.909682
2.54646 -0.838142
1.50872 2.84549
3.69818 1.58729
-1.11552 7.22712
-1.14826 1.57449
6.37319 1.20558
-2.03374 -2.89063
1.69818 -2.97805
0.636596 -4.08478
-1.3243 0.980285
0.622661 1.76281
-3.00319 4.79109
-0.44237 4.26474
-2.00816 1.72707
-2.61167 -1.16287
4.01344 2.63792
2.269 9.19322
3.74177 -2.56271
4.17339 0.201572
-6.48619 0.0186602
2.05782 4.59223
1.53724 -2.08761
0.869363 -7.07288
-2.19098 -0.946337
0.0951124 -1.84433
-1.25674 0.671482
1.46806 -0.826906
2.51094 -4.40004
0.481271 -4.59611
3.29329 -4.67576
5.36121 -2.48195
2.05842 2.31482
5.81793 1.25999
-1.70578 -2.31209
0.805213 4.02991
-3.96457 -0.0572802
6.66966 -2.39042
-3.52788 -1.02492
3.0558 -0.332951
1.25522 1.74639
2.77078 -1.84666
-3.32187 -2.41758
3.83193 -0.581353
2.15459 -0.607816
8.7782 -0.660305
0.331396 6.23397
3.18703 0.529183
5.12255 6.53223
0.428948 -3.05135
2.7491 -1.46392
3.08962 3.22671
3.79663 1.59569
-2.77916 0.642448
2.30725 2.88876
5.05268 -0.651589
0.917837 0.711038
-2.43789 3.68141
-0.513096 -0.801725
4.12527 1.71656
-2.05745 -0.730832
-1.55506 1.41261
1.72512 0.72747
-0.243384 -1.72373
-3.82397 -1.98979
-0.913368 -0.0894609
-2.22773 -2.86533
-2.29647 0.638993
-4.84299 2.29417
-0.34918 -0.413678
-0.540579 -3.50325
-2.4463 1.11777
1.99972 -1.35016
1.10701 5.47466
-0.102365 -2.59932
0.975092 2.80596
-1.24509 -3.0011
-3.11869 1.003
-1.4286 1.04681
-0.6089 0.810154
3.08767 1.01872
3.34118 -2.80499
-3.24394 -2.26217
0.143844 -1.41736
-1.14363 -3.02269
-0.746454 0.156918
-0.267215 -0.849881
1.44097 3.95797
0.0364932 8.29127
1.71021 1.152
5.06614 4.55551
-2.6312 1.30391
4.87202 3.14913
-1.48079 -2.17598
-1.50137 -2.73766
-2.41434 -1.68653
0.63927 -1.06603
-1.89457 -3.9264
0.719343 -0.106298
2.53877 1.34624
-1.43584 -2.76068
-0.267204 1.48463
-1.81938 -5.24331
2.42841 -5.16146
-1.58752 -2.35324
7.21653 -2.94361
0.536448 1.86358
-0.884242 -2.53419
-1.34803 0.086668
3.17655 1.32366
1.40633 4.90288
-0.039143 -2.7853
3.90282 2.24985
-1.41288 -0.894312
-0.238351 0.367926
2.56405 0.628306
6.66901 -3.35237
-4.25574 -10.7338
-0.572537 1.42558
-3.33573 5.42409
1.91327 1.41918
0.672747 4.93354
-4.81587 -1.6866
-0.317393 -3.05889
4.7712 3.05482
2.57869 0.805371
-0.700251 -1.02686
-3.36276 3.09798
0.409803 2.82553
1.03477 1.23434
-4.28257 -0.36313
-2.98644 0.695812
0.970811 -2.89165
5.58 3.39537
-0.639947 0.597478
2.56616 -3.09566
8.62386 0.751787
-1.11924 -1.86934
1.824 7.79196
2.05305 2.86776
-0.669877 -3.21292
0.51287 5.60173
-0.627627 -2.45128
0.670781 4.52508
-2.25112 -6.48422
4.75682 0.0844192
-1.01393 7.60517
-0.349858 4.80457
2.71641 0.0597872
-1.5749 -2.0351
-1.14403 -0.298123
4.30103 3.35481
3.56497 0.70231
3.28652 -0.830276
2.43482 -1.82601
3.36527 1.96642
0.842619 2.60803
0.378941 2.84953
-1.88171 0.889976
1.11136 -3.49716
2.3307 -1.71695
-0.722429 -2.33445
3.26222 -0.367021
-1.59946 -1.1963
-0.339404 0.709381
1.4507 0.910238
-2.92614 -0.747867
-2.45135 2.81171
1.2589 3.42252
-1.08232 1.90154
-0.697993 -0.536005
0.24912 -1.68785
0.0779447 -0.723327
5.55226 -1.03585
-0.352073 0.344674
-1.29939 -0.0743671
0.364581 0.46662
-5.90277 -5.43648
-2.9198 1.45475
2.87811 1.8009
1.63477 -1.49333
0.851705 3.92286
-4.03031 1.99637
1.8706 1.42934
-1.22421 -1.44234
2.0466 -0.51019
4.01098 3.18324
-3.72743 1.60299
-4.25634 5.90308
1.68896 -3.16095
-0.436758 -5.60339
-4.01596 1.77059
-2.55388 3.39574
3.33309 -1.2953
6.02306 4.97501
-1.75392 0.991542
-2.11168 0.14605
0.485742 -2.10748
2.28219 5.38888
4.10249 1.12342
1.44211 2.32691
-2.18613 -1.45943
0.177232 -4.60773
-0.547446 1.79362
-2.10174 3.19791
-5.59432 -1.81878
4.18119 -3.45915
-1.68407 -3.91079
-0.604103 2.19171
6.0132 -0.261194
-0.750786 -4.71168
-2.39833 -0.314816
-2.73883 1.39286
2.78345 5.69093
2.20822 2.25558
1.44378 1.30446
-1.30059 -0.00462164
-1.10391 -4.1948
-3.69823 -2.5738
6.80069 -0.814845
-0.751397 6.64031
2.01062 5.03585
2.00686 2.06323
-3.02813 1.8865
2.17964 1.26265
-0.221219 -2.39001
1.71116 0.586339
2.8709 4.09599
-2.2864 2.31275
1.74503 1.5114
-0.297087 -1.53697
-0.228207 2.7455
3.12307 -0.366618
1.8345 -4.34961
-4.88545 2.57886
7.71352 6.74648
3.10498 6.29016
3.88402 2.40912
-0.355496 0.406443
-5.68547 3.34416
-3.71762 0.927502
3.10378 1.31278
2.34087 -2.52285
6.10559 -4.57765
0.470837 1.66229
0.630782 3.79839
-1.77064 -1.91505
-2.27514 -1.31855
0.0260089 -2.88004
3.16961 2.37226
-1.3501 3.53655
-1.63984 3.17698
-0.67044 -1.73755
3.0928 -2.33054
5.30324 -2.89784
-2.64712 3.35701
-3.32981 1.16376
7.58681 5.54705
4.61268 -0.982947
1.1105 4.1761
-0.175327 0.498338
2.88318 4.24195
-2.35318 -0.428528
3.43311 -1.95156
-0.474172 -3.95652
2.52457 -1.64367
-5.33147 5.46327
-3.31089 2.79642
-0.40233 -1.63588
-3.31607 -2.35586
-5.00208 -0.324862
0.265523 -1.24869
2.80085 -1.34709
-2.3066 -5.04417
0.903689 4.3819
2.13899 -1.42414
1.25369 1.31826
-0.31217 3.12118
3.94127 0.0475344
3.91871 0.257199
-1.58869 2.83682
6.98692 1.26371
-3.14619 -1.37542
0.137039 -0.502133
-4.82318 0.210372
-0.243827 1.79043
2.50008 2.20176
2.43712 2.0334
2.41817 -2.83276
-0.389662 0.660082
1.0002 2.42182
-3.4101 -0.314644
-0.870286 -0.502328
4.53188 -1.92663
-3.43478 -3.01517
0.18285 1.24726
-1.22005 1.92398
2.33853 -3.31658
4.39124 0.797826
-0.612684 0.491938
2.58896 -3.23714
4.23558 0.696
-5.12735 -0.924096
0.0410253 -0.54802
6.99055 4.07046
4.70608 -2.48116
-0.125983 -1.09049
0.142545 -1.76707
-3.52799 -0.739025
-1.66845 -0.917924
-2.49007 -4.10313
-0.207402 1.79624
0.810159 2.25343
-1.86779 6.6707
3.44632 1.50206
-0.680275 -1.69735
-0.881211 2.32003
2.74351 1.80508
-0.852967 -2.72353
-5.51349 1.52326
7.5549 7.4164
1.88061 -0.994784
3.78732 2.39784
3.77267 -0.201502
1.44221 3.68847
5.68382 -0.990414
-2.45804 3.14811
3.1853 -3.46974
-1.99913 -0.429392
0.797288 -1.00387
-1.49565 -1.05797
-1.7507 -0.0753875
4.17489 0.907696
-2.73774 -2.26601
-3.49913 3.35884
-1.36613 3.33761
0.0848952 0.196929
5.80202 -1.27151
0.743982 -0.336605
1.50795 2.46834
-2.6588 4.45117
-0.526739 -1.08913
4.17492 -8.10972
-5.10329 3.80004
0.0173606 -1.12387
-0.776384 2.22036
-1.83388 2.59305
0.447653 -5.13721
1.7067 -0.948917
-4.5476 -4.7445
-2.22707 2.56341
3.27236 0.59364
-1.54399 1.10621
-2.34477 -1.93679
-1.25569 6.26291
4.07611 3.61444
3.13777 -2.08852
-2.09797 6.3227
1.25299 5.29821
-2.4031 -0.209891
-0.504643 1.84657
1.07532 3.66613
1.70414 -1.38919
-3.04878 0.875872
-2.49904 -0.619101
-3.89448 -0.426042
-0.506064 -1.65625
1.60191 -1.72478
3.32768 0.0452596
-6.4771 -3.10111
-3.18915 -2.72114
-2.96321 -2.77537
3.08591 -1.09098
2.61105 -3.4811
-1.27942 1.32433
-3.72529 -4.27104
2.00233 -7.33274
-4.42465 -1.12283
-1.20169 -3.89662
2.48925 2.4957
2.07618 -4.25694
-3.95088 2.27274
4.85152 -2.75768
-2.20762 -2.39321
-4.58082 2.28791
3.28193 0.433839
5.21693 -4.6067
0.429964 2.02864
-3.90184 -3.88869
1.38551 -0.122582
6.23536 0.308599
-4.44984 2.44087
1.92477 5.30858
1.02885 -0.20982
3.2499 -5.27994
5.38277 1.49014
0.559753 4.54989
2.30348 -1.74858
-1.07019 2.1413
1.21118 0.498791
-3.45601 0.606583
-1.07051 -1.24955
-0.967521 -2.29014
-0.292669 -1.37655
3.06905 4.1618
-4.99845 -2.46828
0.590784 0.262269
-2.10849 -5.24526
-5.40049 1.52692
-5.05896 2.70135
-2.7887 4.19136
2.0142 0.653584
2.64115 -6.91397
2.28729 -1.21777
2.71721 6.07807
-1.56537 -6.52749
-2.81298 -2.04624
-3.3488 -0.523861
3.97365 0.400076
1.7103 3.48382
-4.12837 -0.870989
-0.505301 3.35133
1.07866 1.72386
2.14762 1.74595
0.554417 7.05509
-0.629469 -0.809399
-0.293752 1.7139
0.983809 -1.55126
-1.14294 0.0754057
-0.152049 -1.79548
-6.67936 -3.31865
-0.312042 3.24274
-1.79637 -2.5302
2.73556 0.184793
-0.897004 1.21264
-4.63551 -1.20619
-0.165813 -2.80907
1.25781 1.59514
-3.61138 -0.552048
-2.78453 1.21027
-6.27621 -0.0571622
-4.02132 -0.473487
2.66163 5.07929
-2.79677 1.89307
6.20014 0.345746
-5.47174 0.520842
-4.04493 3.14859
-1.83852 -0.461279
2.17854 3.02093
3.00799 -0.951902
-1.13043 -4.99924
2.50044 6.49127
3.02389 2.15203
-3.70102 -3.58776
3.2181 -2.4452
-2.26907 -0.502457
0.343775 -2.64515
2.37012 -1.52861
-0.985099 4.36547
0.447655 -1.96062
-2.92687 -5.84177
-1.43957 3.57702
1.53938 -0.141708
0.220605 1.18101
0.467588 5.08945
-0.137196 -0.0252633
-1.01712 -0.975926
-0.097681 -0.616783
-1.19579 -2.13964
-5.46741 0.837634
2.46481 -0.960072
1.08315 -0.527751
-0.627191 -0.595087
-4.19016 -1.20989
8.0979 1.49763
-0.428675 0.339168
3.4145 1.46256
0.206001 1.32304
-5.91465 0.143469
-6.30099 -3.47965
0.535957 4.43748
-0.0745617 2.29094
-1.40122 -2.44472
-2.02839 -1.21722
-3.42484 1.62255
0.817183 1.6676
-2.23011 0.23102
3.82079 0.646487
-4.1315 -0.537869
2.89429 -0.51903
-4.4664 -1.93771
2.21463 -0.447841
6.5151 3.94333
5.00226 -1.85926
1.40484 -1.88566
0.537181 -1.94065
-0.231284 -1.06932
-3.37954 2.30885
-1.44471 0.697053
2.97679 1.34137
-3.37627 -2.09186
0.870885 -3.12163
-2.57798 -2.43756
-0.235501 -3.25844
-7.36733 -1.51659
-3.59067 -6.68997
1.41108 0.64769
1.73565 -2.91585
4.73637 1.79101
-1.06823 -1.54119
3.641 -2.08307
1.70883 0.638424
-3.00865 -1.69263
-6.00241 -0.125931
5.06916 -1.19782
0.254346 -0.60542
1.00336 -1.95385
-3.92079 -0.48629
1.04711 -0.357038
-1.19158 -3.14799
-1.44563 6.27273
-8.1306 2.07333
-3.56128 4.11643
0.496637 -4.36755
3.46976 0.310646
-3.80577 2.11716
1.62775 0.477625
6.86144 1.07253
-3.18888 2.11794
-3.15293 1.05866
3.15382 -1.55247
-1.74513 -3.35174
2.88202 7.42907
1.1881 -3.92121
-1.23238 -1.16623
3.59997 0.596434
0.77219 -4.29709
0.300698 2.19095
-3.70426 -6.04567
0.600781 3.27
-2.24793 -4.98557
-4.1687 2.47355
-2.75319 5.04754
5.05111 2.96433
2.81222 -1.65885
-5.20597 3.13449
-2.70249 -1.62181
0.848986 -0.731222
-0.3285 -0.483703
2.18152 -0.238329
-2.33329 -0.162403
-1.51695 -3.85842
-0.62537 -3.5528
1.94137 0.0594593
-0.0116734 -1.32073
-2.15518 -0.616499
-0.0822756 0.270482
-2.27339 1.07448
5.36471 3.12738
2.99272 -1.76174
4.44237 0.658033
-1.17987 2.47326
4.28645 -1.71732
-2.40008 -0.674312
-1.93216 4.02299
-3.53088 -3.11678
-4.92664 3.43688
1.64973 -3.99023
1.65491 -0.0234086
0.269758 3.73454
-1.414 0.682808
-0.419566 2.43
-1.58495 1.31486
1.20367 0.401066
-0.0632303 0.62982
3.19646 2.20076
-2.72471 -3.06388
3.35576 -2.04481
-5.17023 -0.554868
4.02758 -2.55301
1.12077 -4.18118
-1.39925 -2.01013
-0.850059 2.14703
1.62678 5.44326
1.10091 2.95321
0.683554 1.72259
-0.419029 -1.40608
-1.58847 -1.74223
-2.41688 -2.55995
-1.27006 2.91813
1.0381 -2.1844
-2.17967 0.38916
-1.15004 -3.70199
-1.3924 4.75031
-2.32029 -1.00901
-7.18671 0.176803
-3.43796 -0.665894
1.52846 0.91291
0.0327749 2.73427
0.224892 1.19411
-1.34483 -1.29082
0.0122204 2.77648
5.48048 1.17802
3.10696 4.8245
-3.81925 2.31737
-0.404269 -1.16101
1.70766 0.518581
2.47356 -4.19201
5.22088 -3.09497
-0.472372 -3.30297
-0.14305 -5.09671
-2.24288 -2.68565
0.350904 0.357195
-1.2609 -4.1141
7.03355 -0.810021
3.63079 2.15485
0.882728 -0.295833
-0.961231 -3.43751
0.170981 0.361206
-0.420945 0.773118
3.24892 -3.44159
-3.65531 -2.21544
4.27259 2.23907
5.49038 -1.03776
4.561 -0.343512
-3.12482 -5.26806
-2.44547 3.08111
4.3767 -3.87107
3.60948 1.40791
0.677983 -0.849789
-1.27671 -4.76948
-0.895471 -3.47956
0.526588 4.4055
0.576364 -4.55992
2.8192 0.795
-4.07213 -1.14644
2.27153 -4.13209
0.830495 0.857032
-1.1935 -3.58891
-3.43363 -4.28539
-0.290986 -0.306989
-7.95343 -2.54775
-2.29258 -3.61924
4.80599 -0.202079
0.128317 -3.10126
2.86635 -4.87281
-3.35234 -1.12824
0.0564581 -2.78106
-5.07554 0.565679
1.53282 0.620301
1.02955 0.662814
-0.281792 -1.73399
1.37713 3.71044
-0.352173 0.509529
6.17492 -0.995751
-1.4592 -4.10304
2.08868 -1.2102
-4.16336 3.83755
-1.75091 -4.45811
-3.08459 0.700751
-0.170739 0.912742
-4.74571 1.50227
1.07247 1.61787
3.93834 0.810966
-6.14803 0.581013
-2.87502 -0.754054
-2.0338 5.50257
1.13188 4.1134
-3.02395 4.23317
-2.51021 0.68958
2.12542 0.115939
-2.05613 -0.409704
-0.0469221 2.39902
1.64519 2.08634
-0.548376 2.27978
0.73126 2.95909
-0.938452 -1.57629
4.19647 -0.955361
-4.12986 -2.76577
2.28266 -1.22845
-1.2329 -1.5524
-0.546748 -1.07084
-2.5078 -0.2227
0.625619 -3.23128
4.5315 4.32329
-2.86786 0.27934
1.84755 -1.50469
-3.42591 -4.9353
-1.30421 -1.65041
2.31803 2.76388
-3.62783 -1.66429
-3.1788 -2.37416
-0.0696678 0.441251
0.81637 1.84802
1.79271 -0.632997
-7.64088 -3.64487
2.25056 -0.0238965
-0.309311 0.421844
6.82515 -2.26414
-4.0313 1.50599
-0.947482 1.32954
-1.4989 2.30696
3.07488 5.09993
-1.0679 1.28671
-0.679782 -3.088
-1.80681 -6.12892
-6.3247 0.989775
-0.173913 -2.05507
1.53584 4.64609
2.37535 -0.971517
1.22049 -1.81768
-1.67811 -0.46363
3.27493 0.428707
-1.66969 0.0899783
3.39572 -1.25978
0.392697 3.29798
0.751162 1.20398
-4.77595 -2.29072
-2.64949 4.28405
-0.710688 -3.14824
-7.1337 2.06623
-1.4985 -2.00339
0.329978 -1.2164
-1.76386 0.448932
2.26652 -1.13559
1.48502 -3.46403
2.35192 -0.0140861
2.52991 -1.20165
1.7353 1.86039
-0.70105 2.31548
4.66689 2.14056
4.81637 -1.29542
-4.89597 -4.23571
2.64519 4.31076
-2.22391 -3.60742
-3.59514 -8.0913
5.30805 4.95371
-3.31113 -2.24424
-2.78662 1.27408
-1.03835 0.572876
-7.57621 1.19894
5.11335 -4.33353
1.3955 -0.778661
0.103622 5.22768
-4.08527 2.68626
2.24302 -0.068927
0.102486 2.4818
-0.336375 -0.0359982
3.12799 7.36366
-1.52644 -4.89905
2.67428 4.55607
1.38017 4.83403
4.31373 -1.23617
-3.09075 -1.62246
-6.02901 -1.25507
0.952628 1.37741
0.3311 -0.482433
1.42574 1.6641
-2.8351 -1.33858
2.52284 0.927288
-3.94974 -5.16089
-4.0561 -8.14146
-1.73075 2.42748
2.01974 -4.4845
0.833612 -0.319406
4.26467 -2.49602
-3.18651 2.45561
-1.58044 3.46526
0.191791 -4.9941
-1.73502 -1.05953
-0.800323 -0.716356
-1.14645 -1.8948
-0.711797 0.743049
0.183105 -0.932971
7.18454 4.74067
1.0546 -4.17363
-0.701071 -8.72969
2.45994 7.01335
0.995138 3.47404
0.0124676 -3.88218
1.68666 -0.111981
3.11938 -2.93311
2.66781 4.42175
0.129383 0.480803
-6.66719 4.15676
3.12034 0.397038
-0.809028 -3.61946
-5.51982 2.41222
-0.341815 -0.11147
2.08329 -4.59009
3.32769 2.59166
4.91707 -0.247861
0.843245 2.96619
-3.1498 -0.214339
0.951874 3.59729
-0.500025 1.28672
0.88951 -2.04468
2.18242 1.67284
-0.44661 -2.79386
1.47869 4.59427
1.72535 -3.41594
-2.61599 2.13477
3.77625 -3.23048
-0.578659 -1.48498
-6.60748 0.276639
7.98811 -1.32208
-2.62538 4.61578
1.1038 2.98642
-1.28714 7.8576
-1.28539 1.33387
1.90878 -3.52198
-1.85887 -3.08297
-1.82406 1.65086
-2.47796 0.178108
1.39422 2.34888
-0.667297 4.63383
1.88106 1.69118
-0.694781 3.56549
-1.44506 1.95241
-6.44154 1.25517
6.49159 2.52467
0.798905 2.6021
-2.40901 -0.811733
-2.1549 -0.390778
-0.685015 3.09122
-2.28622 -2.08984
-2.75624 1.2772
4.54591 -1.19793
1.02393 -8.82339
-4.88579 2.86214
5.08602 0.329414
-3.5392 -2.39892
3.32796 -3.72192
-2.10261 0.471967
2.96507 4.01013
1.59635 -2.33821
-3.02563 3.47915
1.86878 -8.10119
-0.872594 2.90139
-1.56428 -2.32749
4.84227 2.5355
-2.84624 0.263248
-2.78758 3.01029
-1.3034 -2.87553
-1.87234 1.39625
2.92994 -1.46292
3.24181 1.19574
-5.38705 1.00671
2.73962 -3.40406
2.99366 -1.28827
1.65489 -1.39258
-2.62487 -4.36439
-1.23838 -1.80659
-2.80525 -0.615001
-4.82029 0.473027
0.916489 0.469018
-5.40905 -2.49016
-3.18157 -3.20789
4.36737 6.43809
3.76503 2.56105
3.28098 -5.13675
3.18452 -5.86755
0.687581 1.70931
2.26667 1.82472
0.567092 -1.68826
2.41901 5.82061
1.34428 5.46203
-2.46627 -2.53476
-0.393643 -1.3538
-1.10936 0.185388
-3.35301 -5.60039
-0.268905 2.97452
2.72109 1.87094
-1.61827 2.22282
3.14994 -1.37201
0.0776896 -0.279854
0.617065 0.615592
-1.79964 -5.51494
0.137079 2.89822
-8.45102 -0.713337
4.18337 -2.73002
-3.86847 4.38699
0.5981 -3.76482
-0.155371 2.66024
0.489243 3.52986
-1.414 -2.41273
1.49293 -5.81639
-3.08694 -2.93963
-0.303055 -4.67336
2.74393 4.16491
1.56837 -1.31349
5.04372 -0.681982
-0.464235 -1.8916
0.0725139 0.172563
-5.37609 -1.70226
-6.79614 -1.61249
-1.14824 2.34863
-2.84519 -4.39835
0.434832 -0.70018
-1.64608 2.59064
-1.0972 0.106946
-0.584346 1.10067
-0.611488 0.891981
-0.00633086 -1.30224
-1.12142 -3.38931
1.10243 -1.389
3.47713 -4.56576
-3.70358 1.25405
-5.07532 0.394589
-8.97099 -0.920458
3.08166 -3.05818
2.68976 -2.31676
1.79644 0.656267
-2.46373 3.26571
-2.66346 2.98994
-0.443086 -9.06951
-0.944795 -2.60931
0.0765838 3.85339
-4.14369 -2.32951
6.83877 -0.57366
1.44849 0.322864
-4.36822 1.81187
1.68101 0.277481
2.01316 4.15441
2.21311 -0.641986
-4.38835 3.42613
5.12844 7.73846
0.874572 2.91643
1.95288 0.785972
-1.9055 1.47812
1.9348 1.63923
-5.62248 4.86659
2.38982 -2.17335
1.4205 -0.718535
-3.95001 5.5441
2.64556 1.50615
1.29689 -0.0505098
-2.94553 -2.53301
0.292536 -1.99069
-1.87688 -1.53547
11.187 3.57764
1.27154 -2.0712
1.88658 4.6446
2.54801 0.802792
-2.87682 4.843
-1.65398 3.92055
-1.13393 7.59052
-2.16196 -1.16832
0.103472 2.60428
-1.91469 -0.0854343
-0.45269 3.02964
-2.5793 3.01843
4.06537 -2.28797
-1.61079 3.44259
-3.04813 -3.62694
-2.4192 -5.63948
5.31214 1.41766
1.82019 -1.1594
-1.78331 2.81289
5.40902 -0.386567
0.418417 0.653771
2.40746 -0.90556
2.13558 -1.79343
-1.67742 -1.14598
-2.73854 0.739501
-1.19339 3.92354
1.45796 0.0416269
3.19274 0.219894
0.496124 -0.317343
3.12117 -2.08064
-1.44921 -0.120678
-2.97359 1.45699
1.50079 -0.089234
-4.89966 2.00743
-5.12795 2.44803
1.53936 -0.751178
-0.0721304 -0.375238
0.31581 0.250956
2.78759 -1.78232
0.210626 -0.570199
5.34217 -1.98174
-2.32512 2.156
3.18312 -2.57993
1.8985 -1.13106
1.25409 -3.8042
-2.26801 -6.06258
-0.484243 -0.574441
0.876905 -0.644021
5.99295 3.42471
1.66502 -0.790332
3.77458 1.44449
2.721 0.154262
0.506422 -0.577885
-1.13512 -2.43675
0.248406 2.08222
-4.3517 2.47017
0.848383 2.66808
4.03414 4.05811
-2.08761 0.00283549
6.1067 1.26654
0.933885 3.35619
-1.26741 5.32812
-1.77074 0.821543
-2.08596 5.66236
-1.0381 -2.28254
1.82042 -0.281801
-4.50792 -1.69368
-2.92301 5.91434
2.81994 1.39257
1.19658 -5.66899
-0.724221 -1.36787
1.71249 0.502379
-0.289049 -5.43688
5.64008 -2.75581
-3.57787 -2.10896
-2.90801 -3.20343
-3.96028 -1.1997
-2.15828 4.52959
2.96914 1.1024
4.06263 2.99424
-3.55012 -0.422843
-2.78314 0.122215
0.895085 0.131668
-0.211842 -1.68805
1.40996 1.89959
-4.91498 -1.18316
-0.432774 -2.87276
0.242398 -1.40832
-1.7304 -5.04989
-0.438087 0.925452
-0.818768 -2.2754
-1.5648 -0.102314
2.36627 -0.428041
-5.71073 1.33375
0.455755 1.42633
-2.97469 -2.85464
-0.810262 5.80766
2.28166 4.9337
4.72719 2.90171
-0.862133 2.54319
1.1473 3.13954
3.42663 3.07725
4.55205 -2.14222
-1.25884 -3.92271
-0.372405 0.56764
-4.50301 2.88181
1.37365 -4.81769
-1.20881 2.13139
-4.37257 2.43671
1.34996 0.00821262
7.37429 2.65818
-2.91162 0.997452
0.568786 0.310505
-2.63672 1.62831
3.86709 -0.219992
0.804345 -6.19714
-4.62018 -1.49855
2.60404 1.27077
-3.00887 -0.715583
-0.536232 -0.589189
1.67793 0.987942
-0.572166 2.72692
0.355606 2.31455
-2.00273 0.554214
4.27775 1.23554
-3.30145 -2.64929
-2.84582 -2.35246
2.00498 1.47355
1.99903 -4.41474
4.90303 3.83576
-4.71666 -3.86407
-2.06668 -2.3794
0.99335 3.98008
1.73041 4.83437
3.43545 0.793842
-2.07081 -2.8446
-1.11453 2.79404
-0.941929 0.0608198
4.65071 -4.22279
3.27097 2.16512
-3.79169 3.18576
0.0870741 -4.63213
-2.81215 -0.169642
1.34001 2.86409
0.678772 0.92277
1.99766 -1.25046
0.721915 1.8867
1.7148 0.0730158
-3.08661 2.87567
4.22847 -3.61166
-0.22753 -0.41901
-1.76875 1.73268
-1.44236 -5.13831
1.6712 0.0801969
-0.439899 -3.38915
4.43219 4.29093
-1.17096 -1.72846
2.67603 0.211954
0.463272 1.95237
-5.93743 -1.60433
-2.37621 2.14687
1.19865 -5.36288
-4.01149 -1.96478
-0.217869 1.12026
-2.89379 -3.30991
4.38236 -4.99979
2.2544 -0.787709
3.26662 2.20083
2.35597 -0.204267
-0.711507 -2.92783
-1.3242 0.38801
-1.04891 4.46363
-0.132465 4.62533
2.03573 -3.42375
-4.47851 -5.53654
0.639734 -1.72929
-2.24424 1.05647
0.721316 -3.47246
-0.453066 3.07725
-6.3391 -5.62533
0.241414 2.12374
-1.47189 -6.15223
-0.0773658 -4.70818
4.05859 2.51564
2.45505 0.560324
0.690826 -0.0582909
1.45895 1.31706
0.936628 -1.19704
7.26869 2.18048
0.044522 -1.95924
1.09556 -3.82247
-0.623206 -2.31537
-1.22968 -0.0929149
-0.616422 -3.2072
-3.69023 1.24289
-3.19749 0.723886
-6.27305 -0.0831871
2.17377 -2.41213
-0.769891 3.02474
-1.37537 3.22652
-3.2666 2.87629
-2.61518 -3.45519
-1.57868 5.25074
-0.921599 -3.42975
-0.338792 -1.91696
-3.58153 -3.19744
0.464091 3.64924
-1.08515 -2.24424
6.33043 -2.63506
-1.9237 -4.30021
-0.872152 1.597
-0.418856 -2.62286
-1.85283 1.2124
2.00761 -5.40866
0.0129001 -2.15964
-4.08527 0.610301
1.64318 1.26144
-1.40881 3.03727
0.174513 5.44282
-0.847256 -0.403671
4.19089 0.46442
6.07513 -2.53743
0.4952 0.459479
2.60204 2.53923
4.19829 3.09293
-0.0332261 -2.23831
-3.4356 1.24039
-2.174 -6.0577
-2.07975 -4.85285
-0.462626 -1.46775
3.75264 -1.25438
-1.11923 -0.381943
-3.74689 1.56369
-1.94039 2.80871
-2.00072 4.22302
-2.21344 2.64466
5.58563 3.75469
2.46391 0.828295
2.46535 0.441995
2.20797 -2.01327
2.09912 -3.04267
-0.515237 -0.529683
1.63815 2.94721
-1.1453 -0.0803289
-0.0706323 4.44525
0.0503424 4.05025
-2.81632 -0.766313
-3.86182 -0.423719
-2.68028 -2.35345
-0.246582 0.276668
2.94066 1.99744
5.61337 -0.810097
3.15643 -2.10444
0.530381 -0.831565
0.427706 -1.60944
2.33265 -0.0923273
-0.634596 3.72705
-0.40715 0.978137
2.76147 2.62458
3.8747 -2.08246
-0.865547 -2.25702
0.227005 -1.86904
-2.27601 1.46579
-0.635389 -5.80219
-1.74848 -4.99767
-0.975651 -0.394318
2.2462 2.29897
-1.10421 -0.94236
-4.63708 -1.27839
3.2789 -3.65767
-2.98723 0.177608
0.331153 -2.0586
3.307 -0.686372
3.84321 2.7535
-2.14804 1.00682
-2.20032 -0.289139
2.32516 5.29821
-4.87487 -8.45854
-0.51037 1.33401
4.74628 2.55128
-1.50829 -1.57665
0.643834 6.8253
-0.17192 3.8622
4.91488 2.67823
-2.38924 4.23249
-2.33259 -1.82826
5.285 3.70465
1.12683 -5.11065
-0.892419 3.0295
0.907912 -3.45185
-1.6061 3.5561
-2.96762 2.08739
1.21234 -3.48116
-0.987773 1.5106
2.95506 2.38092
-0.628832 -5.6708
1.83317 3.92424
0.287316 0.796107
1.4579 -2.20037
6.17181 1.1054
-2.43612 3.70778
3.69041 1.11234
-2.40721 2.1901
4.2614 -1.78735
-1.29361 -0.403822
0.53494 -0.540112
-0.118192 -3.78651
0.469671 -1.33413
-0.932414 1.39727
0.434275 0.359944
-1.24898 7.96262
0.842933 0.674422
-1.1105 -1.49975
-3.01394 1.17644
2.67075 4.84602
-4.18916 -0.645621
3.18394 -5.26767
5.4469 -1.40129
0.565414 -2.85726
1.81335 1.20529
2.63862 -1.54565
4.30959 -1.4148
8.06047 -0.792711
-4.28408 0.871527
-5.85288 -1.45602
2.58099 0.639181
3.1226 -2.74666
-5.12429 2.85352
-4.51528 -2.06302
3.0742 -0.346191
-2.63563 -5.0322
-7.65946 -2.40599
-0.0460092 -0.167999
-2.85929 4.33846
1.60282 -2.07849
-2.66564 -0.148946
5.45945 2.31476
-0.510393 -0.669525
5.17673 0.586639
1.57162 -1.73401
-3.40233 -1.92815
-0.464793 3.49372
-0.949405 -1.19797
1.39736 -2.01561
1.59266 -1.59543
-4.56355 -1.63839
-5.22979 -2.28914
4.22302 -3.48383
1.67502 0.123925
-0.452638 -4.40123
-0.242399 -4.8747
2.00912 1.67757
-1.87074 5.15007
1.63687 -1.28893
-2.72966 -2.81885
-5.13318 3.33433
0.377435 1.00208
-3.18927 0.775647
-0.447548 -5.08142
2.07112 1.55573
1.98958 1.51857
1.74134 -0.523242
-0.497747 -1.01355
-6.12275 1.80345
-1.2066 1.45429
3.58127 -6.18386
0.122983 1.93653
-2.33599 -1.19368
7.00879 1.98649
3.62429 -4.33077
-0.240734 1.66122
-1.51686 6.03888
-2.22147 -0.687198
-0.386056 0.611407
3.1788 -6.22155
1.55269 2.96961
2.02631 2.118
5.45149 -0.834984
-3.28372 0.108074
-1.8564 -2.1177
1.38641 0.361673
-2.60231 -4.86627
-1.32133 -4.60906
0.313424 1.0888
1.72516 0.99171
-0.563564 5.21986
-0.811564 -1.75416
1.11051 1.65091
-4.67087 -2.07004
0.266806 -3.31605
-2.58971 -5.9342
1.28174 7.70701
6.43332 -2.88691
-1.67693 -1.8345
2.225 -3.19424
-0.103733 -2.27608
-1.68123 5.79921
2.05636 -1.31456
-1.60866 3.98456
-2.77884 -0.468817
1.39452 -2.12281
-0.430772 0.18175
-1.24703 0.0110246
-0.591266 3.98762
-1.42093 -1.62856
-2.51405 -1.01367
5.7435 -1.6113
1.48152 -2.30649
-4.30847 -1.1427
2.02635 2.29995
1.56727 4.37907
-2.35289 0.567148
-3.82591 1.90059
-2.51908 -4.09156
0.951627 1.65641
0.601678 3.38074
-5.59634 -1.27711
-2.46352 3.04096
2.8237 -2.70302
-0.880703 -1.27227
-5.57295 2.10424
5.12161 0.112018
2.73636 0.613048
-3.11393 -4.73338
-3.46933 -2.97301
-3.73773 2.63694
-0.61655 -5.33462
1.33599 1.57383
-2.5342 -3.1999
-1.32305 -1.25796
1.41066 0.111099
-2.70781 5.11249
2.09952 2.23717
-4.03618 4.06581
-1.11897 1.79143
0.388063 1.0592
4.90716 -1.64217
-4.00485 1.29035
-2.49781 -5.50952
-4.11496 2.63092
4.78529 -2.35192
1.6168 -2.72854
0.529317 1.99002
-2.7019 0.780466
0.00591033 1.81972
-0.469851 1.32484
0.526383 -4.4954
2.59136 -1.87935
-2.36018 -1.53139
-2.16305 -2.96422
0.0829331 -2.80581
-3.69342 6.65737
-6.24317 -1.3764
-3.00477 1.15182
0.486515 1.98681
6.53886 1.71641
-0.166999 0.805145
0.928057 2.16038
1.71865 1.75736
-0.413307 -1.84582
-1.01774 -3.59649
-3.21588 -3.71141
-2.74871 -6.65018
-2.87712 0.864019
-3.44519 -0.372686
-0.206618 3.62584
0.667964 0.928902
-2.61028 -1.57582
3.07731 -1.10442
0.695606 -3.98841
1.73289 2.71608
-5.26184 1.8447
-0.496103 -0.974757
2.51363 -0.970001
0.925917 5.13812
0.696876 -0.172042
0.658029 -0.999115
-0.65507 4.34603
-2.26314 -3.92242
0.678374 2.83077
-3.15777 1.68525
3.27784 1.20719
-1.70877 1.92692
-2.19129 1.47747
1.05885 2.45938
-5.65871 -0.000916137
-5.16438 -3.17727
2.93467 -0.613585
6.17561 -6.13008
-1.08432 1.96389
-4.23314 -1.54473
4.91985 0.516327
-1.1683 -4.7106
3.98046 0.364904
-2.58157 -1.00551
6.40522 3.05647
-3.45651 0.0375262
-0.214259 -1.23899
-5.06585 0.436395
1.25449 1.84915
4.73401 6.20376
-0.717499 -2.73145
6.22433 -2.84892
-1.51704 -2.08658
-0.149507 -1.27755
-4.71833 -3.9123
5.07847 -1.97319
0.925786 -7.20447
0.0108642 -2.69975
-1.65157 -1.10594
5.1073 -4.87659
-2.12258 1.96812
-0.964036 -0.465298
-0.763328 0.931478
-0.720966 -1.36009
0.902328 4.32177
3.7767 -2.52326
-3.01302 0.225467
-0.290384 -1.51498
-2.29916 0.58169
-4.55283 0.917401
1.11744 2.28941
-0.284871 -1.66511
-1.49462 0.389099
9.07865 2.96809
-0.054956 -4.82389
-1.1044 -1.64809
2.03635 -0.773959
3.28155 -0.51487
-0.115094 5.28563
-0.687517 0.334754
0.833965 0.738269
0.030331 -0.3559
4.77596 2.06634
0.0931918 0.122083
-6.18997 -6.0606
4.26211 -2.68058
1.18772 -5.91406
4.21376 -5.17274
-2.49873 0.344618
-1.35892 -0.787033
-2.73895 3.81487
-3.34444 3.22485
1.17986 3.29738
1.51372 -0.300406
5.07916 4.81424
3.06406 -0.346345
6.38046 -7.23504
2.00571 2.50397
1.58981 -4.92499
3.55468 -2.83386
0.838252 -4.16895
-0.224892 -0.0361559
-0.976229 0.454892
-5.99387 1.14221
3.60374 -0.727004
-5.73684 -1.64609
1.74029 1.46022
3.15265 0.675363
-1.51346 -1.54336
-3.71896 -1.44133
1.83778 -7.60401
-0.639668 0.412506
1.43047 4.0582
-2.83633 3.1012
0.723788 0.401346
-3.15888 -4.81711
-3.65385 -3.99005
0.733791 2.75426
-1.301 -0.137983
-2.47502 1.20717
2.46671 -1.36402
-1.10358 -0.178813
0.766605 -0.658638
4.8841 3.01916
4.38559 -2.1528
1.58324 0.213693
3.95875 3.96166
-4.11919 0.781034
-4.77303 -1.16865
1.00721 6.85401
-6.7661 -1.95846
1.47438 -4.02277
0.0832938 -8.5497
-1.49415 -3.28263
-3.31186 1.68013
-0.599704 -0.0664413
0.385102 0.746911
1.82491 -0.607093
-0.0557015 4.0071
2.49928 -0.799413
-1.68281 -1.2055
-1.79624 1.85971
3.56102 -2.53725
2.31508 3.95765
4.15682 0.364796
4.03648 -3.37106
4.01543 -1.649
0.0845089 -3.51071
-5.77277 0.443876
-1.16717 1.12937
1.64893 3.92381
-2.19061 -3.07209
-0.400743 0.758841
-2.18052 1.33932
3.78022 -1.13931
-2.65707 1.28101
6.34359 -1.56094
-0.369368 -2.51525
2.59244 5.99122
3.09919 -1.89013
2.17173 0.315019
3.03178 -2.02011
-0.301084 -0.396009
2.27481 -0.932595
4.21275 -2.1394
-1.1334 2.6396
0.462151 4.52858
1.96472 -2.2456
1.85097 -3.06134
4.44418 -2.67824
-1.11011 -6.15117
3.4658 0.82923
0.315002 5.7473
-4.12694 -1.21338
2.50601 -2.48253
3.53411 -0.515764
-0.206215 -2.21436
0.836891 0.518096
-3.54749 0.595424
-0.928281 2.41075
2.63203 0.431393
5.97081 0.448586
-0.50554 -3.28138
-2.09697 3.04321
0.984614 5.12798
0.891444 3.36696
-0.591775 -1.27018
4.92893 3.03733
-5.23365 -2.81351
-4.03785 2.89447
-1.31965 -2.02947
2.05712 -2.92704
0.97298 1.76271
2.52705 -1.08818
3.81127 -0.447786
2.20894 2.28885
-3.40989 0.187428
1.08173 -0.117455
-1.56687 -3.10684
0.606216 5.76161
3.44773 3.60152
-1.54476 0.57605
-1.74622 -2.37578
1.05722 2.48577
-1.13385 -2.12082
-2.20432 -1.6497
1.73865 -0.0343188
3.11042 5.1768
-2.7196 2.41681
-0.0883978 -0.292873
-1.40704 4.56831
2.70994 -3.12728
-2.89671 -6.78042
-5.00551 2.23383
-1.10896 -1.91625
2.69671 4.85456
-2.60162 1.40939
1.94768 2.14163
-3.11262 -0.764559
3.73522 -0.601977
1.27794 -4.03838
0.955503 3.73304
1.01967 0.137399
0.58853 1.01686
2.33382 -4.11714
-1.13294 2.52599
-0.413273 3.36552
-4.3636 -1.05004
-3.91649 -2.57616
-5.01934 3.36085
-1.9171 -6.72957
2.17957 -1.19883
-3.24795 -1.37472
6.768 -2.66323
-2.20497 0.792113
5.19687 -1.7146
-0.212811 -0.58664
-2.30154 0.518648
4.12597 -0.771801
4.91893 -1.06615
-3.9221 2.63439
0.488775 0.780105
3.7299 2.40406
2.02912 -3.73966
-3.00017 1.53432
-2.2951 -2.71279
2.60793 1.58506
2.82935 -1.49082
-0.309876 -0.866942
-2.65606 -4.57111
0.969187 4.52876
3.34419 1.93937
4.31711 -3.22593
0.213347 0.460366
2.52079 -3.42614
-2.84803 -2.03307
1.74602 0.385909
-0.28599 -2.368
3.24304 2.25598
-0.0264121 -4.92095
3.87791 -3.71762
0.71918 0.273533
3.50774 -4.79565
-1.68162 -2.30324
-0.950407 -3.36295
0.212649 -3.37531
-2.19016 -2.52224
1.10435 0.00806883
0.397976 -3.2745
1.58982 -3.32211
1.07 -0.947604
-1.20757 0.641896
4.22568 -0.820271
-4.30523 -7.24265
1.15693 0.0678196
-3.34741 3.84787
2.12036 0.504139
-2.91597 -0.53998
-1.01484 -4.54602
4.21904 -2.12681
-2.11504 1.84537
-2.31436 3.87759
0.858363 -0.0999038
3.50466 -3.66585
3.61202 3.9097
-2.39577 -0.33409
-0.673313 -3.93457
0.280848 -2.642
-0.585263 0.32392
5.34324 -3.30789
-3.30566 -2.26073
-0.952629 1.05195
-1.94399 4.66
1.15228 -2.51178
-1.53344 -3.40014
-5.07556 2.73497
1.86672 0.942941
-3.56751 2.04923
-2.9598 -1.96841
2.84368 -1.07104
-0.878044 -0.753871
-1.2888 2.17082
-0.14679 3.55487
2.48355 -2.8805
1.28865 -0.074373
3.41679 1.31088
1.80616 -2.87306
2.30956 -0.640018
-0.69207 2.76364
-0.966578 0.988449
-3.92137 1.85571
-4.74121 -2.05952
1.31763 1.25077
5.57508 0.503632
1.08119 1.31804
1.05982 4.68864
-5.32652 -2.53536
-2.9313 -4.71967
3.72665 -6.25166
-3.60344 -2.58435
3.28992 3.1546
0.225323 0.73979
-6.13516 -3.25166
1.39109 -3.55897
-7.67791 -0.992844
0.401774 0.295444
-1.87382 -0.759023
-1.90284 2.34324
1.89835 -1.40371
-0.991772 3.65181
-2.28593 3.87252
-3.18313 3.78309
-1.24273 1.88376
-4.63754 2.71426
-1.8128 -5.71842
2.78111 4.92632
-2.18212 -0.480292
1.63513 1.65986
1.24873 -1.54599
1.05863 -1.34222
-0.272822 0.857275
-1.02396 -3.00089
-3.25519 -4.7054
-3.72439 0.782506
-1.40082 2.8884
1.19976 -0.717637
4.15875 -1.53241
-0.0803158 -1.6668
-4.38929 -0.34711
-3.50731 -0.961141
0.412087 -0.564226
-2.57874 -0.645585
-0.893429 1.38252
2.29596 -1.30399
-2.55669 2.37627
-3.99009 -0.90007
-0.0978018 0.445648
-5.93796 3.15642
2.90324 -6.23776
4.34842 1.50755
2.91341 5.84804
2.76719 -0.24838
-1.21795 1.37192
-0.461946 -2.71755
-1.17535 -2.03417
-3.46557 -3.13114
0.476786 4.2838
-2.7802 0.989826
-1.68617 -1.81486
-0.931572 -0.736399
-5.55036 -2.97748
-0.202836 8.29928
-1.1433 1.07019
-1.06876 -6.11685
-3.7448 -1.82414
-3.67968 1.25062
7.04026 -5.1815
1.68879 0.473903
-0.590692 -0.744288
5.55239 2.25044
5.52915 -0.161998
-1.77989 0.0993499
-4.27378 -1.73528
-5.45134 -1.11568
0.891002 -0.952162
2.57993 2.5505
1.01778 0.763615
2.28829 5.18456
0.97589 1.22936
-4.04628 3.66171
1.9223 -0.741669
3.46798 0.0609122
0.946598 -1.34034
5.65648 0.516852
4.4602 -2.07533
-4.27273 -6.03301
2.76092 -1.5628
-3.45699 1.92914
-0.692211 -0.570631
-1.66511 3.66917
0.412511 4.74089
5.01825 -2.17883
-4.33918 1.36648
-1.88447 1.68504
1.73499 -1.11798
-0.102448 -1.01527
2.2695 1.03402
0.868027 3.64929
0.240307 1.48545
3.20167 2.27994
3.40456 -1.47185
-0.0821912 2.06635
0.327697 -1.13458
-3.77089 3.33303
-0.481138 -0.00525998
-0.312132 -4.41137
-5.37238 0.983081
-2.25659 -1.28384
-0.682829 3.60662
4.06441 -2.20457
-1.40178 0.645095
1.80722 1.34265
-5.33645 -2.26444
3.686 -1.25775
4.53931 -0.698346
1.54352 -2.42474
0.539813 -1.69752
-2.64625 -2.82738
-3.50252 2.1272
0.630609 -1.24015
3.93478 3.6927
1.09579 3.06763
1.21994 -2.45134
-2.91742 -1.00139
-0.514344 -3.58749
-1.01634 -0.971487
-0.53152 -0.879138
2.22499 2.20931
-3.93105 -2.2744
-4.21193 2.81609
3.33967 0.206613
-1.64711 2.18444
-4.18465 5.53846
-3.09788 4.68681
2.93786 -1.98941
1.5931 0.74665
-5.7441 -4.69359
5.03169 2.20627
-4.90976 -0.544706
7.93779 -0.392941
-1.68291 2.75732
0.848705 -1.24127
0.380768 -0.6277
-3.75306 0.103335
-0.292677 4.06111
5.30392 -3.15468
4.01817 2.06715
3.95104 1.0792
3.36706 -0.0698852
0.0406253 3.79296
-3.93179 3.51502
-0.314914 -2.76749
2.44132 -0.820657
-2.53492 -0.519475
-2.09214 0.768007
-2.14965 0.102403
-5.31883 -0.90548
6.1457 -0.897576
2.46018 3.68227
-3.01113 -4.28232
-8.78908 -3.12367
-6.16282 2.75095
4.7437 -1.60245
-4.00949 -2.749
2.29191 1.21775
-3.09638 0.010004
3.00181 1.50159
1.74582 4.38377
-1.76736 -3.07832
-3.13386 0.620858
-2.97853 -5.73579
0.0216698 2.0629
-2.02007 -0.0480328
4.27329 -1.64046
-2.2989 3.92522
-0.97809 -1.27101
-1.55825 -1.08693
-2.50368 -1.67802
0.598043 -0.356916
2.85889 -3.01812
-4.80309 -2.01764
2.24255 0.968007
-3.88334 1.02731
1.83005 -3.09006
0.582356 2.68115
-3.63747 -1.80953
-1.66195 -0.164405
-9.02356 3.69651
0.766918 1.89015
-3.56213 1.82182
4.02969 1.55034
-1.16681 -3.1342
6.75866 1.45809
-3.20575 3.67077
1.3478 -0.625527
-0.758137 -1.02812
2.64155 -4.52413
1.87328 1.68473
2.69151 0.74353
-0.185073 -0.199768
2.76333 0.811694
0.771142 -3.23227
-3.87098 -1.23196
-1.02329 -2.17146
-2.87881 1.00936
-0.398552 -5.77219
-2.98572 2.20206
-1.04229 -1.9412
2.0548 -2.51138
3.27095 -1.66394
-5.90285 -1.24263
-0.0877917 -3.80442
-2.65437 -3.45609
1.92656 1.06019
-2.23034 -0.170018
3.88591 -1.95648
-1.94607 -0.959185
0.0831114 -5.6028
-0.896667 3.98617
3.26698 -1.1254
1.08956 0.341518
-0.858361 -2.18191
4.1352 0.845355
1.63968 2.47186
-1.29931 -1.77478
6.4034 -2.70156
-1.8455 -1.05135
-0.204469 2.12081
1.79187 0.593497
3.69112 6.46596
4.4931 -5.53178
1.01255 -3.89192
-7.07933 -0.811398
3.52987 0.036911
-3.63976 0.26743
-0.42649 -5.54105
5.10471 -1.85705
-4.4743 0.655982
-0.38834 -0.101235
-1.52844 0.453428
-1.45864 -1.32121
-1.18973 2.75527
1.0981 -0.880495
-2.60032 1.0316
-0.26141 1.23575
3.03555 5.03174
-2.84884 -3.76827
-2.91619 -1.90399
1.88841 -3.88308
2.83698 -0.126984
-0.765549 -0.836713
-0.533539 -2.18022
-0.25329 4.51412
0.113979 -1.73497
-0.332869 3.5033
-0.452927 3.59499
-2.29973 -1.65224
4.64195 -3.53906
0.989946 0.908374
-3.44077 8.55119
0.0624928 -0.998315
4.15013 0.212692
-1.16621 0.411242
0.230164 0.327627
3.4043 2.78284
-5.04135 -0.250869
1.30013 -3.89619
-2.7834 -2.58458
0.694623 2.01452
-3.70379 0.212334
3.36493 1.18684
3.66466 -2.79524
5.52001 0.990555
3.78073 4.99503
2.06418 -1.08263
1.36635 1.35097
-2.58371 3.14479
-0.164088 -0.186899
2.34909 -0.0607013
6.38003 0.057145
-1.75663 -5.06723
-4.53813 1.11964
1.86906 -1.37889
-2.3109 -3.32076
0.880793 1.11231
0.428298 2.07592
3.57022 4.09441
6.29431 -1.08366
0.0526466 4.00767
1.73826 -1.5404
-1.19219 -1.67162
1.12601 2.80008
-1.74672 5.37815
0.682353 1.71569
-1.61493 6.36202
0.801132 5.91081
-0.376205 2.06592
2.07408 -3.75027
-0.0750374 0.261627
0.915179 -1.08358
1.55902 4.10757
-2.90278 -2.17227
-3.68077 -3.42687
-1.99328 -2.36506
2.13048 3.68056
-0.202878 -0.894868
-2.9435 -4.50304
0.673433 2.46643
1.0082 7.23129
-0.116848 -1.77277
-2.65788 -2.28384
1.44994 4.2901
-1.35241 -6.83722
0.436341 -2.09763
1.83518 5.0822
1.12304 6.18015
3.29401 2.91075
-0.965976 2.06408
3.25212 4.00774
6.44705 -3.63339
4.10169 -0.0135505
3.20945 -1.96819
1.06793 -3.13527
-0.185575 6.87568
-2.14231 -1.48022
-5.03668 -3.78609
-3.63827 -2.72263
-4.6236 -0.836315
0.969513 2.49456
-1.41276 0.586989
1.91115 3.1205
0.999482 -2.70905
-0.991394 4.30523
1.31173 0.350997
-0.730108 0.560148
-4.13502 -2.25612
1.09581 -0.414098
-0.190562 3.5905
0.295326 3.49054
-1.92782 3.32035
3.43305 -0.783566
-3.45393 -4.01093
1.2701 -1.95018
2.47833 -0.142314
-0.907189 -3.83316
1.6267 -3.82932
-5.62021 0.666306
2.18709 1.23877
-0.171125 1.24811
-2.85102 -3.25507
-5.26297 0.556673
-0.974876 2.19493
0.38817 -0.81886
-3.20631 0.659052
2.45422 4.19098
-4.67119 0.194383
-4.84217 0.729022
0.369052 2.37239
-3.74414 5.04255
-0.19895 1.09181
-1.32041 0.302799
0.954993 0.61097
-1.38681 1.72056
-0.649254 -1.90594
-1.81897 -3.94313
3.52728 1.23986
4.46823 7.88982
0.713928 1.72349
1.39428 -1.99948
-1.50548 2.17999
2.30567 0.683115
-1.81276 1.5357
-0.411274 0.207761
0.629175 4.50002
-1.32451 3.33645
-5.45696 -0.048046
1.47026 -1.71817
-4.18268 6.47922
-2.17925 -4.23862
-2.88188 4.20931
2.60216 7.2027
4.94328 -1.98845
-0.700865 -2.48863
0.971632 -5.24009
-5.88579 -2.32068
1.83434 2.90975
2.84473 0.00970419
-2.59218 2.52684
3.38385 -0.00687046
2.54984 -1.40519
6.53422 3.87478
-4.11439 0.0909792
1.74093 2.98689
2.88976 1.4316
-0.438161 -1.56336
-1.9204 0.575633
-3.75945 -2.69567
0.953582 -0.913404
-0.565573 -1.53497
-3.56183 -1.95898
-2.52741 -0.30745
-0.331991 2.9895
2.4879 1.91977
-6.61998 -3.64349
-0.130978 2.11026
3.65854 -1.72087
-1.43455 2.37929
0.47024 0.923408
-2.70903 0.241372
4.80272 1.40592
1.38563 -1.91695
-5.70962 2.98976
-0.523015 2.16014
-4.79502 -0.132463
-0.573475 4.29382
1.91226 -1.20871
-0.0824542 -5.12919
-1.76485 0.648015
3.00652 -2.6076
-5.46901 -0.534167
6.20738 -3.21236
0.182824 -4.73924
-1.48973 3.84623
4.04402 0.266835
3.83365 -0.651548
-0.337726 2.18893
2.64188 2.42679
-1.32409 4.17136
-0.383792 -4.48648
0.641006 -2.92047
-0.52788 -1.94426
7.88835 0.947399
-0.427054 4.64913
-0.685221 1.27186
4.00003 -0.23826
-1.65035 -0.950737
1.01262 -1.3916
0.150288 -3.94239
2.79732 -4.46586
3.13485 -1.39651
-2.76645 -2.38685
1.24654 3.18047
1.95406 -4.20074
-2.20855 -2.8561
1.7447 0.808252
-4.38348 0.752378
3.16228 -2.00188
1.46568 1.98712
-0.0511975 -3.93656
-2.50142 -2.31027
-0.984404 2.88032
1.41008 0.357576
-2.91897 0.0465635
-2.67581 -1.71812
1.03917 1.70928
-3.52629 4.58494
4.95137 -0.0999728
-5.26387 3.15803
-1.4198 -0.745782
3.0457 -3.77736
-0.506948 1.56983
0.327176 -3.32735
1.87764 3.02789
1.36065 -2.78009
-8.30178 -2.34522
1.00085 -2.65109
-1.33794 -3.32533
-9.22406 2.09853
0.282892 2.16022
-4.994 3.79802
-1.01826 -0.353704
-3.36767 0.797823
-2.63015 6.12629
1.4026 -0.110088
-9.32836 3.16888
-1.67406 -6.17604
1.58541 -5.95073
2.90229 -0.0808148
0.2065 2.92214
5.47981 1.32806
-0.400559 -4.06879
5.3016 5.96328
0.00777294 -2.18226
-4.69828 1.45418
2.16559 2.28621
-1.14658 4.31302
-2.35628 -0.90784
3.25912 1.19622
6.32324 -4.22683
-1.71731 0.210661
6.1795 1.86767
0.413175 -5.76768
-1.91093 0.448809
9.28141 0.0119795
1.45104 -2.37897
-1.33467 -4.85019
-0.0730561 2.75376
-2.14651 2.51381
0.521843 4.00877
-4.04935 0.304476
-6.61708 -0.708713
3.69291 1.93789
6.23028 5.4157
-1.34511 -0.380698
-5.07129 4.99653
2.33646 0.789823
2.76974 -2.21675
-0.0930519 -1.04788
-0.994032 2.45467
0.378565 -1.37389
-5.75892 4.85615
-0.222692 3.13638
-1.77999 4.57812
-4.23353 0.848789
1.86801 4.79222
-5.89456 1.00603
1.81731 -2.14549
2.44525 3.71289
2.73082 0.94608
-6.01794 -0.422771
0.259099 2.67383
2.87593 -4.28243
3.53361 2.1961
0.880354 1.72579
-0.756076 0.606319
-1.27873 -2.36831
-4.01912 -0.929591
4.77555 1.60454
6.69688 -4.26242
2.64367 0.612759
-0.171925 -0.951814
-4.96508 -6.95272
1.30898 3.2441
-0.454501 -0.765726
0.696767 -0.665931
3.83237 3.11227
-2.67737 5.3533
2.11618 2.31843
3.28101 -0.353382
2.09172 2.07677
3.94363 1.44664
2.51805 -5.86267
-3.85751 -4.865
2.72118 -3.26276
2.29137 -3.47048
1.88543 -3.30481
0.90526 0.939201
-5.96168 1.35239
1.05342 1.81173
4.38114 3.38468
-2.58043 -3.42091
-1.88508 0.415608
1.06359 -4.04411
0.228987 -1.48826
5.28883 -2.91607
-1.44445 0.362055
1.78342 1.44434
3.34967 -2.15954
-2.21885 -0.921405
2.36481 3.80094
-1.26176 0.000520333
5.19913 0.467588
1.63475 -3.09594
3.4758 1.81812
3.23126 -3.3406
1.15414 -0.147132
0.888951 1.49445
0.219803 7.54558
-1.45952 -1.35273
1.86243 0.227155
-5.41656 0.854732
1.15896 3.06228
0.828973 -2.31658
1.04838 -2.70819
6.75563 -3.86964
-8.17965 -0.188731
-0.148028 5.15525
2.46002 2.89357
0.00419971 2.84077
-2.53618 1.5687
-0.695003 -1.33464
-3.67719 -0.560468
3.21024 -2.46564
-4.92574 4.30346
1.21372 4.49704
-0.427976 2.28509
-3.18538 4.60455
-7.60055 4.23045
2.39832 1.18476
1.22463 2.14718
-1.76221 -0.278193
-0.14805 0.84946
1.25278 0.829969
2.76336 0.958832
-0.895528 -2.70063
0.986268 6.11567
-5.18187 1.93211
-0.586311 -2.75824
-6.37302 -0.467715
-2.36994 -1.12287
-4.67026 3.73298
0.12031 1.02785
-3.01392 -5.95393
1.06098 -0.826903
0.697713 1.49697
-0.222914 -3.52146
2.89825 -5.77323
-1.35001 5.11713
-0.454165 3.16969
1.24078 -0.833171
-5.90809 -1.46222
-1.94934 0.157071
-1.80823 4.76698
4.29479 -1.69462
4.07815 4.08899
0.190174 -2.89709
1.48671 3.39775
0.175266 -1.74531
-0.522439 -2.10742
-9.78569 -2.13168
-2.59736 0.573467
1.08457 -1.31409
-1.0681 -5.6872
-1.47129 -1.71255
-0.302927 -1.35404
4.15102 2.34952
-3.12358 1.10584
6.16162 -1.54744
0.315422 -5.48344
-3.1896 2.65753
3.83353 5.5355
-2.25292 1.36178
4.66637 -0.772982
-1.08538 -1.10446
4.79269 8.26682
1.73942 6.07354
1.58145 -2.80367
1.27924 5.76624
-0.452352 -2.36488
-0.855721 2.00272
0.0563375 1.86627
0.387 -3.14154
6.55551 0.0490134
3.73403 -0.0839782
-3.63028 -4.55599
-3.85859 2
2.74487 -1.68515
3.22489 -1.84933
-2.92884 -0.203014
1.23286 -2.36898
6.24117 -1.08573
2.21581 1.97336
2.31896 -1.87313
1.93329 -1.06645
-2.66655 -2.75486
-1.23863 2.50184
-2.04408 0.733019
2.4124 1.49
0.667544 1.12463
-0.592135 1.61461
3.02802 2.72895
-3.41971 -2.2435
2.56584 -1.11127
-0.560908 0.483252
-0.469424 1.59838
2.05208 -4.1544
-1.35536 0.921769
5.60074 -5.31499
-8.04186 -0.682573
-5.41912 3.19436
-0.281947 6.33142
5.65001 2.8081
2.29961 3.20969
3.68375 -2.1101
-2.67487 -5.98059
3.257 -6.26798
3.34864 -1.42906
-3.46518 -2.44242
-1.88127 1.67164
-2.97419 2.47362
0.882913 2.23624
1.02182 -0.237708
3.22724 1.44931
1.79283 -4.34482
-2.61846 -1.47556
0.805519 0.168631
1.23631 6.09659
2.47592 -1.42434
4.66041 0.503685
2.69797 3.34232
1.09717 2.95304
4.41438 -0.600909
5.13544 -0.292101
1.76676 2.60437
4.73247 1.42059
4.80874 2.01667
1.8028 2.29934
0.584915 3.40345
-0.765677 -0.65031
-0.661924 -4.69327
-0.0945186 -4.61781
0.0384573 1.27847
-0.910909 -5.34563
-4.4269 -0.414611
0.553821 1.84911
-4.0506 -1.74929
-2.6482 1.78704
3.65701 -2.63796
-0.745574 -2.37011
0.84412 1.42474
-4.75718 0.312428
4.22351 -1.76692
4.61256 -1.35272
-2.54157 -3.57664
-1.36793 6.5905
1.85395 -1.49755
-4.09098 -0.97631
-0.632389 -2.01212
-2.68939 -2.91365
-3.22818 1.49756
-2.82265 2.07808
6.51293 0.667597
2.53433 -1.18279
-1.1669 -1.24949
2.91402 -1.72187
4.83787 -2.31733
1.88326 0.544541
-0.574272 -1.73795
0.604989 -3.16675
-2.17307 -1.76516
-6.50024 -4.20095
-2.51582 2.30732
-4.24805 -0.0491195
-1.636 -2.56653
3.18808 -4.18457
-2.81765 -0.0194647
0.00717481 0.232856
-4.70933 0.140457
-2.24223 -5.47816
3.42128 2.75727
-1.94679 2.75771
0.951452 -3.57981
-0.810763 -0.473975
2.65723 0.351288
-1.99495 -0.730303
0.363353 -6.5117
0.659919 -2.26418
6.73299 1.91725
-2.20389 -2.12922
1.80696 0.560481
3.63987 1.50892
4.32685 -3.89375
-3.21852 -5.44724
1.09198 -3.59176
4.71093 0.028381
0.611857 1.14039
-0.793902 -2.67243
5.44614 -2.76742
-1.32578 -0.212724
-6.43166 4.9889
0.738904 1.90203
0.77804 -2.45356
2.20297 -3.15607
-6.4193 -1.71975
6.32331 -4.34436
2.33109 -2.64881
-2.21106 -2.47036
3.39384 -2.4747
-4.50595 4.60776
0.492046 -1.23489
-2.19727 -1.1521
0.880417 -3.65083
-1.84696 1.04862
3.45265 0.965789
-4.64292 -2.31024
5.26407 -3.82687
5.82287 -2.45589
0.36577 0.438011
3.35813 0.908348
-0.231694 -2.09899
1.90317 -3.13595
3.07433 -1.07763
-8.05967 0.366927
0.0404483 -3.76831
1.68249 -0.80219
4.72821 -1.00314
-2.55572 0.116525
0.484583 -10.2245
1.67969 -0.63077
2.87448 3.31698
0.878118 0.920996
1.32352 1.3292
-1.34787 -2.98136
-5.39369 0.473333
3.0138 -4.18271
3.94352 2.14046
-7.12305 -0.584382
-0.39604 -1.7087
-3.02533 -0.436947
-0.277355 -3.95648
-3.29601 -2.83383
-3.3926 3.612
-1.06209 -2.58137
2.64057 4.17336
2.99453 2.27416
1.70191 1.61304
0.870783 -5.19071
-0.305252 1.88461
-1.15769 4.06303
2.41586 1.55509
3.17827 -0.0504036
6.75005 -1.98
-0.894335 0.0864548
-4.32632 -3.09568
1.57497 -1.86021
0.745537 -4.28728
-3.88352 2.80262
6.15494 -4.21097
3.14201 -2.4515
0.069836 3.76869
4.94002 2.37342
4.67834 -0.469966
-3.44695 4.12414
1.64274 -2.25401
3.90058 -0.43127
5.13149 -1.06894
-3.3263 -1.73531
-5.53873 0.802924
-0.744497 0.146338
1.44592 -1.54501
3.71181 1.00303
6.99656 -0.291988
0.520504 -3.47902
-0.0909067 1.40543
-0.847287 4.07664
4.88497 0.382064
-2.15195 0.104071
0.0779095 0.554282
3.97497 0.477797
-3.01732 2.28013
-1.05746 -2.74207
1.75782 -0.861887
0.624732 0.696394
-0.849251 5.88621
1.73235 0.227782
-0.732477 1.83717
-2.74043 -2.32089
-5.92969 2.33029
2.19129 1.99532
2.70338 0.340626
1.3667 1.04193
0.82155 -1.1464
-0.240811 2.95312
-5.72998 -2.06611
0.430477 0.803566
0.411103 -5.08491
-2.7169 -0.232165
2.62884 -3.29896
3.35164 4.12243
-2.92805 0.748337
-3.43017 -0.676713
1.27358 1.89561
-0.654639 3.35725
-2.84161 8.24481
-4.70745 0.663885
-0.696945 -0.33837
-1.57423 0.344065
3.22233 2.34398
0.720479 4.04381
5.45585 0.568555
-4.00014 9.8339
3.91999 4.21578
0.0961686 -2.99975
-1.376 -2.34512
-1.78017 2.88526
2.92525 -3.54912
0.658747 1.88875
4.15187 2.84628
-0.64983 -1.52784
1.49805 0.407192
4.63357 -0.765809
3.51186 -0.488528
3.79557 1.32768
0.327998 -2.62468
0.860279 -6.6374
1.71398 -2.08234
4.12696 -0.323886
4.33051 2.52684
3.90671 -6.37095
-5.13353 -0.119342
6.41333 1.42883
-4.78087 -0.63304
-4.23845 4.47002
0.598753 -1.12612
-0.14906 2.66049
-0.149015 -0.328382
-2.84073 -1.21462
4.56801 2.09697
2.72354 -0.598845
-3.31663 -0.566537
-2.3001 0.789713
-3.45966 -4.48611
-2.75681 -2.42275
0.933392 3.79602
-0.242404 -1.92819
-4.59141 -1.35823
3.42414 1.01593
5.60338 -3.65153
4.44808 -2.11829
1.89519 1.00103
4.59907 -1.84114
-3.43535 -6.79525
2.95622 -0.540604
3.25721 -5.10477
2.1833 -0.991978
3.78502 -1.09553
6.2468 4.87333
-0.0163524 -2.75816
4.23694 -0.495777
-0.372795 3.28929
-7.03486 0.298767
-0.0759038 0.819804
3.62039 4.57987
-5.39186 5.07998
-0.8352 -4.49167
-2.17435 -0.178425
4.63834 -0.712459
-2.69921 0.969347
8.66165 3.00305
1.9015 0.787935
4.3815 -0.791665
0.319541 1.95476
1.22572 -3.70293
1.66889 -4.50926
-0.579754 4.21893
-4.55886 -3.45989
1.24558 5.34913
-1.48491 -1.34923
0.130854 7.05561
-2.46234 -5.86532
-1.79549 -7.27123
0.950224 -0.178594
-1.3096 -4.00942
-3.75653 3.2754
-3.60661 7.40704
-1.203 0.190433
-1.51111 -0.574262
-3.78567 -3.29372
-3.3885 -2.60212
-3.10723 -3.30726
0.593535 4.45308
8.44499 -2.39219
5.62783 -4.73982
0.791322 -3.10125
-1.25628 1.52763
2.59256 2.27673
6.34428 -1.59961
5.87421 1.64804
-2.66092 -1.54397
-0.573382 -4.74107
0.777637 -0.72373
-3.94866 -2.32426
0.782249 1.11329
-0.528208 -0.179049
2.30779 2.98423
-5.31703 -0.993437
1.08208 -1.14243
-2.15601 -3.97608
-5.5494 -0.955228
-5.46091 2.93785
-0.176777 -0.35719
-5.27227 0.0685726
3.86841 -1.36693
-1.05557 4.02398
-1.98827 1.08655
5.26234 2.97741
1.71698 -1.64203
1.27784 0.633287
-6.03531 -0.969721
0.706066 1.17639
0.00113184 -4.60555
-1.72918 -2.44461
-0.990054 0.342672
-5.79387 2.63543
1.6984 -0.10271
-0.356308 0.0358187
-1.07477 0.741413
1.18997 -0.251713
-0.910394 0.0966162
-0.960426 -2.76607
-4.16864 5.64724
8.81628 0.38432
2.44483 -4.93604
-3.17098 1.24365
5.40858 -0.505388
6.39465 2.49423
-1.98763 -2.03913
-1.83321 -3.80232
0.982471 0.700561
4.38208 -3.30107
2.98023 -1.9613
-0.0595008 -4.69397
-3.32377 -0.177546
-0.829637 2.99438
0.678597 -2.5886
0.539504 -0.110915
2.90745 -4.7018
-1.57686 3.44851
-2.4531 3.11087
2.06955 -1.38191
1.733 -4.35801
3.6035 1.9651
-1.22432 0.0669272
-2.00762 -4.8646
4.31537 -1.9776
2.23153 -0.630028
2.64561 -0.927475
-2.38218 -1.9694
1.40252 2.9187
-2.71384 0.34924
-0.260214 -2.13595
2.23633 2.80076
0.220278 -2.03209
0.12759 1.14361
-1.31523 -8.54637
-3.99079 3.04046
-0.299582 3.04001
0.453832 -3.81289
4.27135 -2.89397
1.11404 0.969995
-1.44 2.27813
2.1421 -2.35196
-1.27661 -4.13084
-8.66913 -4.80603
4.23568 -1.95104
-1.45608 1.96435
1.11276 4.29141
2.87074 -3.59975
-7.01627 -1.71954
0.424267 2.92648
-2.03394 -2.96622
1.89948 -1.15504
2.99902 -3.09713
-1.69573 2.34099
-0.559781 -3.28774
7.29087 0.352784
1.28115 -6.67583
2.631 1.69183
1.91066 2.42831
-0.14837 1.65318
0.464286 6.16999
4.64952 -5.42211
-1.00895 -0.652775
-3.81635 1.68441
1.98972 -6.20661
2.91876 2.0973
1.62209 1.69135
-3.27263 4.67517
-0.197423 1.82637
-1.47528 2.50385
-3.99722 -0.211546
2.64256 -2.66499
-5.6654 0.764287
-0.946771 3.47053
1.30691 2.20625
-1.38326 -0.291083
0.417198 -1.38854
-5.94061 0.0479575
-1.12371 -0.405887
5.5382 0.493886
-8.26554 -1.47793
-0.174064 6.28853
-0.370154 -4.72601
3.82251 3.8054
0.0761111 0.471419
1.86218 -3.1753
-0.0668125 0.0772851
-3.20853 0.51402
0.494119 6.91545
4.72044 -0.247246
5.09708 -0.576592
2.20673 0.652785
11.1377 -1.91202
-0.772727 -2.14444
0.542287 -2.42277
2.36791 1.69235
0.00623042 -3.50749
-2.15943 -2.55899
-2.81571 0.444346
-3.04187 -2.58673
0.679117 -3.88233
2.02321 2.34657
1.73616 -3.32711
2.05197 4.03661
-1.72353 -4.53717
2.26712 -1.14475
-0.352771 -2.20976
-1.58808 2.28998
-8.79779 -4.17521
6.72409 1.18859
2.41568 -5.2121
0.0793344 2.06853
-0.728783 -4.33289
1.9659 -1.8228
2.04068 -3.60397
-1.81258 -1.36128
3.03855 -3.08976
1.5864 2.9504
1.87558 -1.62616
-0.195516 2.4872
3.57766 3.68492
-1.98992 -1.4393
-1.64246 -0.545995
3.36447 2.53363
4.30475 -1.089
4.97345 -0.262042
-3.28396 -0.0753552
-1.32782 -5.05904
1.77359 1.55381
-3.9594 -2.13006
-1.21187 -1.51303
1.06678 1.3087
3.28386 1.56563
2.7653 2.43842
1.08492 -4.82807
-3.6472 -1.32503
3.0681 -2.34694
2.47699 -7.18958
-3.45647 -0.997975
-0.449982 3.8056
1.53316 2.47762
-5.13432 5.92331
-0.785099 -2.04218
-0.226199 3.1361
-0.709236 1.89594
-2.42894 2.12497
-0.751372 -1.22272
-1.88723 -3.11218
4.19737 -0.825672
2.4636 -0.874785
-0.0362341 -3.65366
4.1102 1.61543
-0.950269 -3.17028
0.81882 -3.5714
0.455768 5.41435
-3.26835 0.77817
-6.27695 0.431353
2.22032 -0.216054
-2.48328 -2.46712
7.91698 0.381383
1.19433 0.595574
-3.1895 2.18279
-2.16163 -2.9191
0.0297609 2.12719
0.793211 3.21431
4.62833 -1.01649
5.38607 -1.59316
-0.319761 -4.23257
-0.400203 0.0275073
1.43868 -1.68601
3.60465 -3.16733
-1.65066 -1.59431
3.38663 -0.473018
-7.62068 -4.2368
-0.135618 -2.14681
-0.75253 -6.76996
1.06537 -3.34205
1.14207 1.47288
0.153727 -2.51613
-6.03696 4.87142
-1.85177 7.52176
0.164282 3.557
-4.6995 7.23168
-2.71529 -1.49796
-1.31073 -1.75818
-3.67004 -0.680524
-4.95795 2.84706
0.915129 1.62508
1.38423 8.75641
3.85151 0.798314
-2.57057 2.36383
-1.92703 -1.32254
-0.529677 0.817475
-2.59678 -0.917901
0.211203 -3.12445
4.44649 -3.26624
-0.97203 -2.41309
1.41193 -3.3494
-3.61918 -4.56105
4.08241 1.2883
-7.04835 -7.68302
-1.96753 -2.2097
0.768623 0.741033
-0.553525 -1.19677
2.47855 2.55635
0.455471 -6.03578
1.70205 -4.36989
-1.47625 -1.01895
0.648151 -2.38252
1.37635 2.13077
4.47155 0.471578
-2.44632 1.64939
-3.42367 0.752834
-2.73434 0.262164
-6.03517 1.12252
-4.39045 1.98218
2.45613 0.799094
-4.1222 -1.64959
-3.26893 1.12848
-5.78792 -1.81311
-1.68055 2.04946
3.41019 -2.51928
-1.23218 -6.63665
-1.69278 3.05093
0.980804 3.70684
-5.19505 0.37988
-3.15622 -0.119277
2.18954 1.58692
0.93038 3.15402
-1.10221 -2.67454
-1.57035 2.22743
2.77395 -2.7061
3.85684 -2.33827
-1.24229 -2.72661
-1.04142 1.43963
-3.55942 -4.48105
0.705503 -3.4824
6.42674 4.64626
-4.00957 -6.57248
3.0929 5.51663
3.05211 4.94268
-3.75381 -0.452258
-2.44557 2.7016
-0.670568 2.78184
3.38666 3.60909
3.57555 -2.35754
4.09285 -0.905004
4.48655 -1.4306
-2.89133 -3.20207
-2.46229 5.17577
-1.59632 -0.574581
-1.68321 5.0428
2.03189 -5.64633
-2.14971 -1.02615
3.89259 4.4154
0.90863 5.7847
4.00611 -2.85422
1.06 0.0404484
2.79951 3.98124
0.00750047 -4.19123
-2.18861 1.70689
3.22208 1.69007
-1.32074 0.406283
0.108369 -2.4669
0.746028 3.08437
-3.61689 -1.9297
-0.0933133 2.76332
-0.918428 -1.37247
0.513359 -2.33174
-0.617312 -1.37871
-0.750093 -0.0266137
-6.89306 0.412453
1.64964 -0.639445
-0.556157 -6.07766
1.31956 -3.74725
-0.222227 2.5468
3.18578 1.0978
3.26273 3.82788
-3.27718 -3.25329
3.73806 -0.302215
5.2715 -1.77645
0.155164 -0.516048
-5.68493 -1.47895
-2.35612 -4.611
3.14308 -3.9341
2.42775 -0.723335
1.03657 1.80287
-0.369553 3.06403
-1.17819 1.78632
-2.89363 -0.988088
-2.59334 2.68481
-3.08415 2.34564
0.876408 0.529013
-2.27674 -0.00468393
6.31091 0.317917
-2.29477 -3.40485
2.76736 1.06509
2.8096 4.44629
2.59514 -2.69874
2.33769 0.838743
-2.66694 3.94261
1.42635 0.0480324
4.81522 2.66229
-0.459109 -1.55289
-4.75018 -5.10312
-1.70309 3.90817
-5.33302 -1.04046
3.05289 -3.60731
-4.37046 3.75087
-1.33615 3.20804
-2.38461 -2.81887
-2.03642 -2.22131
-4.11379 0.333078
-0.22331 -1.21052
-0.0627778 -4.9314
-0.890049 6.68902
3.94291 1.75985
-1.35429 -2.81939
1.36786 5.03574
6.11269 0.753205
2.33409 -0.660314
3.01949 1.82324
-0.0377502 3.12753
-5.16703 3.87433
-0.802349 -1.40199
4.05813 2.30629
4.56321 -2.02097
-1.71962 -1.33428
0.935168 -2.90552
2.92815 0.307439
3.40031 -4.31221
0.934896 5.63583
-4.13025 4.69033
1.21056 -0.757274
2.28477 1.63168
3.75605 0.418678
0.751214 -5.05503
-2.90137 -0.062541
-3.28757 3.10201
1.86028 1.48585
5.15717 5.9858
-2.5633 -0.0944314
3.44559 -2.39299
-0.0334255 -0.581434
-0.86166 1.0994
-2.93196 -4.84068
-2.29036 -1.5131
1.36546 -3.94391
4.75363 -4.0852
0.257599 1.71911
1.71444 -3.15189
1.58697 6.39869
-1.51288 0.243279
-4.72918 2.36137
0.102572 -1.33486
-3.58267 -2.04987
-4.05084 -0.0782197
-5.20184 1.59386
-0.256577 1.69562
-2.64631 3.50972
0.619906 -5.44846
-3.7508 -4.82375
-4.28994 -1.23073
2.56222 -2.42492
-3.25956 -0.201971
-1.51536 -0.238185
0.112916 -2.63337
1.01393 -4.06435
0.47128 -4.60992
3.43151 -3.70918
-2.39698 -1.10557
-6.48848 7.8515
-3.89168 7.14004
1.78008 -5.58137
2.95564 -0.991468
0.907361 1.04029
1.29253 2.26213
0.323807 2.07158
1.53085 -0.164052
-3.2827 -3.48479
-2.52098 3.83466
2.93792 1.60776
-1.69415 -1.69505
-0.448178 5.0312
-2.32684 6.2474
0.261932 -0.834353
-2.82211 1.70548
-2.78534 -1.15273
-3.52708 -1.09393
3.46288 0.392637
2.63678 3.60403
-1.37283 2.51436
-1.07392 3.10588
2.91321 0.152157
-3.63352 2.55603
6.27067 -1.47289
1.4021 1.69049
-2.57973 -2.13046
0.759917 -1.33071
-3.51162 -0.302197
4.16669 4.38161
-5.37361 2.09781
-0.207701 -2.00721
-6.04863 0.410243
-2.26816 1.81092
6.6475 2.95394
-1.19525 3.6629
1.02414 0.474944
2.88398 -0.600195
-5.02006 -2.94008
-3.62132 3.97199
2.09448 -3.42378
-2.27429 0.27734
3.70126 -0.040615
-3.98068 -1.04792
2.19801 1.484
2.56145 -2.61345
-3.34292 -0.799039
-2.55327 -0.283698
1.19686 -0.715463
-0.949568 -0.731944
4.33637 0.933103
4.89263 6.21071
-0.647173 2.7113
-0.543426 1.10422
2.20625 2.50234
-1.19219 1.99364
2.99903 0.395262
4.00332 -2.59544
4.39609 -1.68498
-0.538395 0.390902
-0.22085 2.27978
-2.20045 -0.866238
-3.21528 -1.44072
1.70047 9.21486
-3.98043 -0.320632
-2.74694 3.00963
-1.5651 -3.2009
6.05995 4.01318
-4.48019 -3.14558
3.00446 -2.54313
-3.26047 -3.4741
-1.86805 -1.40293
2.8691 -4.92075
-2.16545 0.12649
-0.247312 0.524868
5.33177 2.42008
0.55313 -1.4512
1.07447 1.43538
-0.685552 -1.48019
1.81602 4.1686
2.69909 -0.682089
2.95294 -2.69832
-2.53728 -6.50479
-1.80257 -3.5301
-2.14982 -2.95819
0.671817 -1.11543
-2.62284 -4.57658
2.44026 0.292453
4.5617 0.0564065
4.18209 2.46591
0.206547 0.670072
-0.768285 2.87261
-5.83121 -0.890969
4.26559 2.459
2.98522 -2.72174
1.33474 4.79356
5.36334 1.24719
-3.02157 -0.672567
-1.65829 0.394265
5.1312 0.758877
-2.94743 -1.05554
-2.86063 -0.930852
3.72862 4.13954
-1.37154 0.163576
-3.04288 -1.24649
8.76212 -2.05536
2.64344 1.80524
2.22376 1.00411
-0.45963 0.00417023
-1.28958 2.4471
-1.16987 0.20411
4.46469 -6.77095
-2.5065 0.084435
-0.784288 -1.01956
-0.477789 1.97924
1.24471 -1.17977
-2.73285 1.12942
4.87142 3.61392
-6.50538 4.82987
-0.336161 0.00095662
2.98385 0.399317
-2.13198 2.21205
-1.69752 1.624
0.244058 -1.44228
